VNAME;Long_Name;Unit;VMISS;VSCAL;CF_StandardName;CF_Unit
TimeCRef;CARIBIC master computer time, seconds since midnight UTC on the date of the flight;[s];999999;1;time;[s]
year;date of sampling: year;[yyyy];999999;1;time;[year]
month;date of sampling: month;[mm];999999;1;time;[month]
day;date of sampling: day;[dd];999999;1;time;[day]
hour;time of sampling (mean value): hour;[HH];999999;1;time;[hour]
min;time of sampling (mean value): minutes;[MM];999999;1;time;[min]
sec;time of sampling (mean value): seconds;[SS];999999;1;time;[s]
lon;Longitude as mean value over the sampling interval;[degrees];999999;1;longitude;[degree_east]
lat;Latitude as mean value over the sampling interval;[degrees];999999;1;latitude;[degree_north]
p;Pressure as mean value over the sampling interval;[mbar];999999;1;air_pressure;[100 Pa]
alt;Pressure Altitude = StdAltitu*0.3048 integrated over flask sampling time from high resolution measurements;[m];999999;1;barometric_altitude;[m]
type;Type of sample collector: 0 glass flask from TRAC, 1 metal flask from HIRES;[0-1];999999;1;sample_type;[1]
int_CO;Carbon monoxide mixing ration from continuous measurements integrated over sampling interval;[ppb];999999;1;mole_fraction_of_carbon_monoxide_in_air;[1e-9]
int_O3;Ozone mixing ration from continuous measurements integrated over sampling interval;[ppb];999999;1;mole_fraction_of_ozone_in_air;[1e-9]
int_H2O_gas;Water vapour mixing ration from continuous measurements integrated over sampling interval;[ppm];999999;1;mole_fraction_of_water_vapor_in_air;[1e-6]
int_NO;NO mixing ratio from 10s averages integrated over sampling interval;[ppb];999999;1;mole_fraction_of_nitrogen_monoxide_in_air;[1e-9]
int_NOy;NOy mixing ratio from 10s averages integrated over sampling interval;[ppb];999999;1;mole_fraction_of_total_reactive_nitrogen_in_air;[1e-9]
int_acetone;Acetone mixing ratio integrated over sampling interval;[ppt];999999;1;mole_fraction_of_acetone_in_air;[1e-12]
int_acetonitrile;Acetonitrile mixing ratio integrated over sampling interval;[ppt];999999;1;mole_fraction_of_aceto_nitrile_in_air;[1e-12]
int_CO2;Carbon dioxide dry air mixing ration from continuous measurements integrated over sampling interval;[ppm];999999;1;mole_fraction_of_carbon_dioxide_in_air;[1e-6]
int_CH4;Methane dry air mixing ration from continuous measurements integrated over sampling interval;[ppb];999999;1;mole_fraction_of_methane_in_air;[1e-9]
int_H2O;Water vapour from Picarro instrument integrated over sampling interval;[ppm];999999;1;mole_fraction_of_water_vapor_in_air;[1e-6]
int_h_rel_TP;Height above O3 tropopause according to Zahn et al. (2003), Atmospheric Environment, 37, 439-440;[km];999999;1;altitude_wrt_tropopause;[1e3 m]
int_PV;PV from ECMWF model data;[PVU];999999;1;potential_vorticity;[1e-6 K m2 kg-1 s-1]
int_Tpot;Potential temperature derived from measured pressure and temperature;[K];999999;1;air_potential_temperature;[K]
int_ToAirTmp;Total air temperature;[degC];999999;1;Total Air Temperature;[degC]
int_z_km;geopotential height of sample from ECMWF (with g=9.81 m/s^2);[km];999999;1;geopotential_height;[1e3 m]
int_dp_strop_hpa;pressure difference relative to thermal tropopause from ECMWF (with g=9.81 m/s^2);[hPa];999999;1;difference_of_air_pressure_from_thermal_tropopause;[100 Pa]
int_dp_dtrop_hpa;pressure difference relative to dynamical (PV=3.5PVU) tropopause from ECMWF (with g=9.81 m/s^2);[hPa];999999;1;difference_of_air_pressure_from_dynamic_tropopause;[100 Pa]
int_pt_rel_sTP_K;potential temperature difference relative to thermal tropopause from ECMWF (with g=9.81 m/s^2);[K];999999;1;difference_of_potential_temperature_from_thermal_tropopause;[K]
int_pt_rel_dTP_K;potential temperature difference relative to dynamical (PV=3.5PVU) tropopause from ECMWF (with g=9.81 m/s^2);[K];999999;1;difference_of_potential_temperature_from_dynamic_tropopause;[K]
int_pv_strop__pvu_;PV of static tropopause (WMO) in PVU ECMWF integrated over flask sampling interval from 10s averages;[PVU];9999999;1;thermal_tropopause_potential_vorticity;[1e-6 K m2 kg-1 s-1]
int_z_rel_sTP_km;geopotential height relative to thermal tropopause from ECMWF (with g=9.81 m/s^2);[km];999999;1;difference_of_geopotential_height_from_thermal_tropopause;[1e3 m]
int_z_rel_dTP_km;geopotential height relative to dynamical (PV=3.5PVU) tropopause from ECMWF (with g=9.81 m/s^2);[km];999999;1;difference_of_geopotential_height_from_dynamic_tropopause;[1e3 m]
int_eqlat;equivalent latitude in degrees north from ECMWF;[deg];999999;1;equivalent_latitude;[degree]
ghg_CH4;CH4 mixing ratio from GC/FID data analysis;[ppb];999999;1;mole_fraction_of_methane_in_air;[1e-9]
ghg_d_CH4;absolute precision of CH4;[ppb];999999;1;mole_fraction_of_methane_in_air_standard_error;[1e-9]
ghg_CO2;CO2 mixing ratio from GC/FID data analysis;[ppm];999999;1;mole_fraction_of_carbon_dioxide_in_air;[1e-6]
ghg_d_CO2;absolute precision of CO2;[ppm];999999;1;mole_fraction_of_carbon_dioxide_in_air_standard_error;[1e-6]
ghg_N2O;N2O mixing ratio from GC/ECD data analysis;[ppb];999999;1;mole_fraction_of_nitrous_oxide_in_air;[1e-9]
ghg_d_N2O;absolute precision of N2O;[ppb];999999;1;mole_fraction_of_nitrous_oxide_in_air_standard_error;[1e-9]
ghg_SF6;SF6 mixing ratio from GC/ECD data analysis;[ppt];999999;1;mole_fraction_of_sulfur_hexafluoride_in_air;[1e-12]
ghg_d_SF6;absolute precision of SF6;[ppt];999999;1;mole_fraction_of_sulfur_hexafluoride_in_air_standard_error;[1e-12]
hcf_Trichloroethane_111;Trichloroethane_111 dry air mole fraction, scale: SIO-05;[ppt];999999;1;mole_fraction_of_111_trichloroethane_in_air;[1e-12]
hcf_d_Trichloroethane_111;Trichloroethane_111 dry air mole fraction, absolute error;[ppt];999999;1;mole_fraction_of_111_trichloroethane_in_air_standard_error;[1e-12]
hcf_Carbonyl_sulfide;Carbonyl_sulfide dry air mole fraction, scale: NOAA-SIO-p1;[ppt];999999;1;mole_fraction_of_carbonyl_sulfide_in_air;[1e-12]
hcf_d_Carbonyl_sulfide;Carbonyl_sulfide dry air mole fraction, absolute error;[ppt];999999;1;mole_fraction_of_carbonyl_sulfide_in_air_standard_error;[1e-12]
hcf_CFC_11;CFC_11 dry air mole fraction, scale: SIO-05;[ppt];999999;1;mole_fraction_of_cfc_11_in_air;[1e-12]
hcf_d_CFC_11;CFC_11 dry air mole fraction, absolute error;[ppt];999999;1;mole_fraction_of_cfc_11_in_air_standard_error;[1e-12]
hcf_CFC_12;CFC_12 dry air mole fraction, scale: SIO-05;[ppt];999999;1;mole_fraction_of_cfc_12_in_air;[1e-12]
hcf_d_CFC_12;CFC_12 dry air mole fraction, absolute error;[ppt];999999;1;mole_fraction_of_cfc_12_in_air_standard_error;[1e-12]
hcf_Chloromethane;Chloromethane dry air mole fraction, scale: SIO-05;[ppt];999999;1;mole_fraction_of_chloromethane_in_air;[1e-12]
hcf_d_Chloromethane;Chloromethane dry air mole fraction, absolute error;[ppt];999999;1;mole_fraction_of_chloromethane_in_air_standard_error;[1e-12]
hcf_Dichloromethane;Dichloromethane dry air mole fraction, scale: SIO-14;[ppt];999999;1;mole_fraction_of_dichloromethane_in_air;[1e-12]
hcf_d_Dichloromethane;Dichloromethane dry air mole fraction, absolute error;[ppt];999999;1;mole_fraction_of_dichloromethane_in_air_standard_error;[1e-12]
hcf_HCFC_141b;HCFC_141b dry air mole fraction, scale: SIO-05;[ppt];999999;1;mole_fraction_of_hcfc_141b_in_air;[1e-12]
hcf_d_HCFC_141b;HCFC_141b dry air mole fraction, absolute error;[ppt];999999;1;mole_fraction_of_hcfc_141b_in_air_standard_error;[1e-12]
hcf_HCFC_142b;HCFC_142b dry air mole fraction, scale: SIO-05;[ppt];999999;1;mole_fraction_of_hcfc_142b_in_air;[1e-12]
hcf_d_HCFC_142b;HCFC_142b dry air mole fraction, absolute error;[ppt];999999;1;mole_fraction_of_hcfc_142b_in_air_standard_error;[1e-12]
hcf_HCFC_22;HCFC_22 dry air mole fraction, scale: SIO-05;[ppt];999999;1;mole_fraction_of_hcfc_22_in_air;[1e-12]
hcf_d_HCFC_22;HCFC_22 dry air mole fraction, absolute error;[ppt];999999;1;mole_fraction_of_hcfc_22_in_air_standard_error;[1e-12]
hcf_HFC_125;HFC_125 dry air mole fraction, scale: SIO-14;[ppt];999999;1;mole_fraction_of_hfc_125_in_air;[1e-12]
hcf_d_HFC_125;HFC_125 dry air mole fraction, absolute error;[ppt];999999;1;mole_fraction_of_hfc_125_in_air_standard_error;[1e-12]
hcf_HFC_134a;HFC_134a dry air mole fraction, scale: SIO-05;[ppt];999999;1;mole_fraction_of_hfc_134a_in_air;[1e-12]
hcf_d_HFC_134a;HFC_134a dry air mole fraction, absolute error;[ppt];999999;1;mole_fraction_of_hfc_134a_in_air_standard_error;[1e-12]
hcf_HFC_143a;HFC_143a dry air mole fraction, scale: SIO-07;[ppt];999999;1;mole_fraction_of_hfc_143a_in_air;[1e-12]
hcf_d_HFC_143a;HFC_143a dry air mole fraction, absolute error;[ppt];999999;1;mole_fraction_of_hfc_143a_in_air_standard_error;[1e-12]
hcf_HFC_152a;HFC_152a dry air mole fraction, scale: SIO-05;[ppt];999999;1;mole_fraction_of_hfc_152a_in_air;[1e-12]
hcf_d_HFC_152a;HFC_152a dry air mole fraction, absolute error;[ppt];999999;1;mole_fraction_of_hfc_152a_in_air_standard_error;[1e-12]
hcf_HFC_227ea;HFC_227ea dry air mole fraction, scale: SIO-14;[ppt];999999;1;mole_fraction_of_hfc_227ea_in_air;[1e-12]
hcf_d_HFC_227ea;HFC_227ea dry air mole fraction, absolute error;[ppt];999999;1;mole_fraction_of_hfc_227ea_in_air_standard_error;[1e-12]
hcf_HFC_245fa;HFC_245fa dry air mole fraction, scale: SIO-14;[ppt];999999;1;mole_fraction_of_hfc_245fa_in_air;[1e-12]
hcf_d_HFC_245fa;HFC_245fa dry air mole fraction, absolute error;[ppt];999999;1;mole_fraction_of_hfc_245fa_in_air_standard_error;[1e-12]
hcf_HFC_32;HFC_32 dry air mole fraction, scale: SIO-07;[ppt];999999;1;mole_fraction_of_hfc_32_in_air;[1e-12]
hcf_d_HFC_32;HFC_32 dry air mole fraction, absolute error;[ppt];999999;1;mole_fraction_of_hfc_32_in_air_standard_error;[1e-12]
hcf_Sulfuryl_fluoride;Sulfuryl_fluoride dry air mole fraction, scale: SIO-07;[ppt];999999;1;mole_fraction_of_sulfuryl_fluoride_in_air;[1e-12]
hcf_d_Sulfuryl_fluoride;Sulfuryl_fluoride dry air mole fraction, absolute error;[ppt];999999;1;mole_fraction_of_sulfuryl_fluoride_in_air_standard_error;[1e-12]
hcf_Bromomethane;Bromomethane dry air mole fraction, scale: SIO-05;[ppt];999999;1;mole_fraction_of_bromomethane_in_air;[1e-12]
hcf_d_Bromomethane;Bromomethane dry air mole fraction, absolute error;[ppt];999999;1;mole_fraction_of_bromomethane_in_air_standard_error;[1e-12]
hcf_Tetrachloroethene;Tetrachloroethene dry air mole fraction, scale: NOAA-2003B;[ppt];999999;1;mole_fraction_of_tetrachloroethene_in_air;[1e-12]
hcf_d_Tetrachloroethene;Tetrachloroethene dry air mole fraction, absolute error;[ppt];999999;1;mole_fraction_of_tetrachloroethene_in_air_standard_error;[1e-12]
hcf_Tribromomethane;Tribromomethane dry air mole fraction, scale: NOAA-2003;[ppt];999999;1;mole_fraction_of_tribromomethane_in_air;[1e-12]
hcf_d_Tribromomethane;Tribromomethane dry air mole fraction, absolute error;[ppt];999999;1;mole_fraction_of_tribromomethane_in_air_standard_error;[1e-12]
hcf_Trichloromethane;Trichloromethane dry air mole fraction, scale: SIO-98;[ppt];999999;1;mole_fraction_of_trichloromethane_in_air;[1e-12]
hcf_d_Trichloromethane;Trichloromethane dry air mole fraction, absolute error;[ppt];999999;1;mole_fraction_of_trichloromethane_in_air_standard_error;[1e-12]
hcf_Halon_1211;Halon_1211 dry air mole fraction, scale: SIO-05;[ppt];999999;1;mole_fraction_of_halon_1211_in_air;[1e-12]
hcf_d_Halon_1211;Halon_1211 dry air mole fraction, absolute error;[ppt];999999;1;mole_fraction_of_halon_1211_in_air_standard_error;[1e-12]
hcf_Halon_1301;Halon_1301 dry air mole fraction, scale: SIO-05;[ppt];999999;1;mole_fraction_of_halon_1301_in_air;[1e-12]
hcf_d_Halon_1301;Halon_1301 dry air mole fraction, absolute error;[ppt];999999;1;mole_fraction_of_halon_1301_in_air_standard_error;[1e-12]
hcf_Halon_2402;Halon_2402 dry air mole fraction, scale: SIO-14;[ppt];999999;1;mole_fraction_of_halon_2402_in_air;[1e-12]
hcf_d_Halon_2402;Halon_2402 dry air mole fraction, absolute error;[ppt];999999;1;mole_fraction_of_halon_2402_in_air_standard_error;[1e-12]
was_Acetylene;ethyne mixing ratio measured at MPI-C (CARIBIC-1);[ppt];999999;1;mole_fraction_of_ethyne_in_air;[1e-12]
was_Benzene;benzene mixing ratio measured at MPI-C (CARIBIC-1);[ppt];999999;1;mole_fraction_of_benzene_in_air;[1e-12]
was_Benzene_MPI-C;benzene mixing ratio measured at MPI-C;[ppt];999999;1;mole_fraction_of_benzene_in_air;[1e-12]
was_Benzene_UEA;benzene mixing ratio measured at UEA;[a.u.];999999;1;mole_fraction_of_benzene_in_air;[1]
was_C2Cl4_UEA;tetrachloroethylene mixing ratio measured at UEA;[ppt];999999;1;mole_fraction_of_tetrachloroethene_in_air;[1e-12]
was_C2H4Br2_UEA;dibromoethane mixing ratio measured at UEA;[ppt];999999;1;mole_fraction_of_dibromoethane_in_air;[1e-12]
was_C2H5Br_UEA;bromoethane mixing ratio measured at UEA;[ppt];999999;1;mole_fraction_of_bromoethane_in_air;[1e-12]
was_C2HCl3_UEA;trichloroethylene mixing ratio measured at UEA;[ppt];999999;1;mole_fraction_of_trichloroethene_in_air;[1e-12]
was_CCl4_UEA;carbon tetrachloride mixing ratio measured at UEA;[ppt];999999;1;mole_fraction_of_tetrachloromethane_in_air;[1e-12]
was_CFC_11_UEA;CFC-11 mixing ratio measured at UEA;[ppt];999999;1;mole_fraction_of_cfc_11_in_air;[1e-12]
was_CFC_113_UEA;CFC-113 mixing ratio measured at UEA;[ppt];999999;1;mole_fraction_of_cfc_113_in_air;[1e-12]
was_CFC_114_UEA;CFC-114 mixing ratio measured at UEA;[ppt];999999;1;mole_fraction_of_cfc_114_in_air;[1e-12]
was_CFC_12_UEA;CFC-12 mixing ratio measured at UEA;[ppt];999999;1;mole_fraction_of_cfc_12_in_air;[1e-12]
was_CH2Br2_UEA;dibromomethane mixing ratio measured at UEA;[ppt];999999;1;mole_fraction_of_dibromomethane_in_air;[1e-12]
was_CH2BrCl_UEA;bromochloromethane mixing ratio measured at UEA;[ppt];999999;1;mole_fraction_of_bromochloromethane_in_air;[1e-12]
was_CH2Cl2_UEA;dichloromethane mixing ratio measured at UEA;[ppt];999999;1;mole_fraction_of_dichloromethane_in_air;[1e-12]
was_CH3Br_UEA;methyl bromide mixing ratio measured at UEA;[ppt];999999;1;mole_fraction_of_bromomethane_in_air;[1e-12]
was_CH3CCl3_UEA;methyl chloroform mixing ratio measured at UEA;[ppt];999999;1;mole_fraction_of_111_trichloroethane_in_air;[1e-12]
was_CH3Cl_MPI-C;methyl chloride mixing ratio measured at MPI-C;[ppt];999999;1;mole_fraction_of_chloromethane_in_air;[1e-12]
was_CH3Cl_UEA;methyl chloride mixing ratio measured at UEA;[ppt];999999;1;mole_fraction_of_chloromethane_in_air;[1e-12]
was_CH3I_UEA;methyl iodide mixing ratio measured at UEA;[ppt];999999;1;mole_fraction_of_iodomethane_in_air;[1e-12]
was_CH3ONO2_UEA;methyl nitrate mixing ratio measured at UEA;[ppt];999999;1;mole_fraction_of_methyl_nitrate_in_air;[1e-12]
was_CHBr2Cl_UEA;chlorodibromomethane mixing ratio measured at UEA;[ppt];999999;1;mole_fraction_of_chlorodibromomethane_in_air;[1e-12]
was_CHBr3_UEA;bromoform mixing ratio measured at UEA;[ppt];999999;1;mole_fraction_of_tribromomethane_in_air;[1e-12]
was_CHBrCl2_UEA;dibromochloromethane mixing ratio measured at UEA;[ppt];999999;1;mole_fraction_of_dibromochloromethane_in_air;[1e-12]
was_CHCl2Br_UEA;bromodichloromethane mixing ratio measured at UEA;[ppt];999999;1;mole_fraction_of_bromodichloromethane_in_air;[1e-12]
was_CHCl3_UEA;chloroform mixing ratio measured at UEA;[ppt];999999;1;mole_fraction_of_trichloromethane_in_air;[1e-12]
was_CHClBr2_UEA;chlorodibromomethane mixing ratio measured at UEA;[ppt];999999;1;mole_fraction_of_chlorodibromomethane_in_air;[1e-12]
was_CHClCCl2_UEA;trichloroethylene mixing ratio measured at UEA;[ppt];999999;1;mole_fraction_of_trichloroethene_in_air;[1e-12]
was_COS_UEA;carbonyl sulfide mixing ratio measured at UEA;[ppt];999999;1;mole_fraction_of_carbonyl_sulfide_in_air;[1e-12]
was_CS2_UEA;carbon disulfide mixing ratio measured at UEA;[a.u.];999999;1;mole_fraction_of_carbon_disulfide_in_air;[1]
was_cyclohexane;cyclohexane mixing ratio measured at MPI-C (CARIBIC-1);[ppt];999999;1;mole_fraction_of_cyclohexane_in_air;[1e-12]
was_cyclohexane_MPI-C;cyclohexane mixing ratio measured at MPI-C;[ppt];999999;1;mole_fraction_of_cyclohexane_in_air;[1e-12]
was_DMS_UEA;dimethyl sulfide mixing ratio measured at UEA;[a.u.];999999;1;mole_fraction_of_dimethyl_sulfide_in_air;[1]
was_Etbenzene_MPI-C;ethylbenzene mixing ratio measured at MPI-C;[ppt];999999;1;mole_fraction_of_ethyl_benzene_in_air;[1e-12]
was_Ethane;ethane mixing ratio measured at MPI-C (CARIBIC-1);[ppt];999999;1;mole_fraction_of_ethane_in_air;[1e-12]
was_Ethane_MPI-C;ethane mixing ratio measured at MPI-C;[ppt];999999;1;mole_fraction_of_ethane_in_air;[1e-12]
was_Ethyne_MPI-C;ethyne mixing ratio measured at MPI-C;[ppt];999999;1;mole_fraction_of_ethyne_in_air;[1e-12]
was_EtONO2_UEA;ethyl nitrate mixing ratio measured at UEA;[a.u.];999999;1;mole_fraction_of_ethyl_nitrate_in_air;[1]
was_Halon_1211_UEA;Halon 1211 mixing ratio measured at UEA;[ppt];999999;1;mole_fraction_of_halon_1211_in_air;[1e-12]
was_Halon_1301_UEA;Halon 1301 mixing ratio measured at UEA;[ppt];999999;1;mole_fraction_of_halon_1301_in_air;[1e-12]
was_Halon_2402_UEA;Halon 2402 mixing ratio measured at UEA;[ppt];999999;1;mole_fraction_of_halon_2402_in_air;[1e-12]
was_HCFC_123_UEA;HCFC-1211 mixing ratio measured at UEA;[ppt];999999;1;mole_fraction_of_hcfc_123_in_air;[1e-12]
was_HCFC_141b_UEA;HCFC-141b mixing ratio measured at UEA;[ppt];999999;1;mole_fraction_of_hcfc_141b_in_air;[1e-12]
was_HCFC_142b_UEA;HCFC-142b mixing ratio measured at UEA;[ppt];999999;1;mole_fraction_of_hcfc_142b_in_air;[1e-12]
was_HCFC_21_UEA;HCFC-21 mixing ratio measured at UEA;[ppt];999999;1;mole_fraction_of_hcfc_21_in_air;[1e-12]
was_HCFC_22_UEA;HCFC-22 mixing ratio measured at UEA;[ppt];999999;1;mole_fraction_of_hcfc_22_in_air;[1e-12]
was_Hexane;n-hexane mixing ratio measured at MPI-C (CARIBIC-1);[ppt];999999;1;mole_fraction_of_n_hexane_in_air;[1e-12]
was_HFC_124_UEA;HFC-124 mixing ratio measured at UEA;[ppt];999999;1;mole_fraction_of_hfc_124_in_air;[1e-12]
was_HFC_134a_UEA;HFC-134a mixing ratio measured at UEA;[ppt];999999;1;mole_fraction_of_hfc_134a_in_air;[1e-12]
was_HFC_152a_UEA;HFC-152a mixing ratio measured at UEA;[ppt];999999;1;mole_fraction_of_hfc_152a_in_air;[1e-12]
was_i_Butane;iso-butane mixing ratio measured at MPI-C (CARIBIC-1);[ppt];999999;1;mole_fraction_of_i_butane_in_air;[1e-12]
was_i_Butane_MPI-C;iso-butane mixing ratio measured at MPI-C;[ppt];999999;1;mole_fraction_of_i_butane_in_air;[1e-12]
was_i_Octane_MPI-C;iso-octane mixing ratio measured at MPI-C;[ppt];999999;1;mole_fraction_of_i_octane_in_air;[1e-12]
was_i_Pentane_MPI-C;iso-pentane mixing ratio measured at MPI-C;[ppt];999999;1;mole_fraction_of_i_pentane_in_air;[1e-12]
was_m_p_Xylene_MPI-C;sum of meta- and para-xylene mixing ratios measured at MPI-C;[ppt];999999;1;mole_fraction_of_m_p_xylene_in_air;[1e-12]
was_n_Butane;n-butane mixing ratio measured at MPI-C (CARIBIC-1);[ppt];999999;1;mole_fraction_of_n_butane_in_air;[1e-12]
was_n_Butane_MPI-C;n-butane mixing ratio measured at MPI-C;[ppt];999999;1;mole_fraction_of_n_butane_in_air;[1e-12]
was_n_Heptane_MPI-C;n-heptane mixing ratio measured at MPI-C;[ppt];999999;1;mole_fraction_of_n_heptane_in_air;[1e-12]
was_n_Hexane_MPI-C;n-hexane mixing ratio measured at MPI-C;[ppt];999999;1;mole_fraction_of_n_hexane_in_air;[1e-12]
was_n_Octane_MPI-C;n-octane mixing ratio measured at MPI-C;[ppt];999999;1;mole_fraction_of_n_octane_in_air;[1e-12]
was_n_Pentane_MPI-C;n-pentane mixing ratio measured at MPI-C;[ppt];999999;1;mole_fraction_of_n_pentane_in_air;[1e-12]
was_nPB_UEA;n-propyl bromide mixing ratio measured at UEA;[a.u.];999999;1;mole_fraction_of_n_propyl_in_air;[1]
was_o_Xylene_MPI-C;ortho-xylene mixing ratio measured at MPI-C;[ppt];999999;1;mole_fraction_of_o_xylene_in_air;[1e-12]
was_OCS_UEA;carbonyl sulfide mixing ratio measured at UEA;[ppt];999999;1;mole_fraction_of_carbonyl_sulfide_in_air;[1e-12]
was_Propane;propane mixing ratio measured at MPI-C (CARIBIC-1);[ppt];999999;1;mole_fraction_of_propane_in_air;[1e-12]
was_Propane_MPI-C;propane mixing ratio measured at MPI-C;[ppt];999999;1;mole_fraction_of_propane_in_air;[1e-12]
was_Toluene_MPI-C;toluene mixing ratio measured at MPI-C;[ppt];999999;1;mole_fraction_of_toluene_in_air;[1e-12]
was_Toluene_UEA;toluene mixing ratio measured at UEA;[a.u.];999999;1;mole_fraction_of_toluene_in_air;[1]
was_X2_Mebutane;2-methylbutane mixing ratio measured at MPI-C (CARIBIC-1);[ppt];999999;1;mole_fraction_of_2_methyl_butane_in_air;[1e-12]
was_X2_MePentane;2-methylpentane mixing ratio measured at MPI-C (CARIBIC-1);[ppt];999999;1;mole_fraction_of_2_methyl_pentane_in_air;[1e-12]
was_X2_MePentane_MPI-C;2-methylpentane mixing ratio measured at MPI-C;[ppt];999999;1;mole_fraction_of_2_methyl_pentane_in_air;[1e-12]
was_X3_Mepentane;3-methylpentane mixing ratio measured at MPI-C (CARIBIC-1);[ppt];999999;1;mole_fraction_of_3_methyl_pentane_in_air;[1e-12]
