#------------------------------------------------------------
# FLIGHT 126
# STATUS FROM 2022-06-27T08:18:10+00:00
# FILES MISSING: HCF, P2C, PIC, PTR, SP2
#------------------------------------------------------------
#
#-----------------------------
#------------------------------------------------------------
FILE  CN_20051004_126_FRA_GRU_10s_V08.txt
#------------------------------------------------------------
PARM  COVERAGE[0-1]
N4_12 0.998
N12   0.998
N18   0.998
#
#-----------------------------
#------------------------------------------------------------
FILE  CN_20051004_126_FRA_GRU_V08.txt
#------------------------------------------------------------
PARM  COVERAGE[0-1]
N4_12 1.000
N12   1.000
N18   1.000
#
#-----------------------------
#------------------------------------------------------------
FILE CO_20051004_126_FRA_GRU_10s_V25.txt
#------------------------------------------------------------
PARM COVERAGE[0-1]
CO   0.896
#
#-----------------------------
#------------------------------------------------------------
FILE CO_20051004_126_FRA_GRU_V25.txt
#------------------------------------------------------------
PARM COVERAGE[0-1]
CO   0.891
#
#-----------------------------
#------------------------------------------------------------
FILE  GHG_20051004_126_FRA_GRU_V11.txt
#------------------------------------------------------------
PARM  COVERAGE[0-1]
lon   1.000
lat   1.000
p     1.000
type  1.000
ch4   1.000
d_ch4 1.000
co2   0.000
d_co2 0.000
n2o   0.000
d_n2o 0.000
sf6   0.000
d_sf6 0.000
#
#-----------------------------
#------------------------------------------------------------
FILE HG_20051004_126_FRA_GRU_10s_V08.txt
#------------------------------------------------------------
PARM COVERAGE[0-1]
TGM  1.000
GEM  0.000
#
#-----------------------------
#------------------------------------------------------------
FILE               HG_20051004_126_FRA_GRU_int_V09.txt
#------------------------------------------------------------
PARM               COVERAGE[0-1]
FlightPhase        1.000
PosLat             1.000
PosLong            1.000
TrueHead           1.000
WindSpeed          1.000
WindDirTr          1.000
PitchAng           1.000
RollAng            1.000
StdAltitu          1.000
BaroAltit          1.000
TrAirSpeed         1.000
ToAirTmp           1.000
AltitRate          1.000
StcAirTmp          1.000
AngOAttck          1.000
TotPres            1.000
VertSpeed          1.000
GndSpeed           1.000
LocalTime          1.000
pstatic            1.000
Tpot               1.000
Altitude           1.000
SZA                1.000
H2Ostatus          1.000
H2Ogas             0.977
H2Ocloud           0.273
Ozone              1.000
H_rel_TP2          0.886
NO                 0.000
NOy                0.977
NO2                0.000
Hg_TGM             1.000
Hg_GEM             0.000
CO                 1.000
CO2                0.000
CH4                0.000
CH4_Err            0.000
AN                 0.000
Ac                 0.000
N4_12              1.000
N12                1.000
N18                1.000
PNumC              0.000
PSurfC             0.000
PVolC              0.000
PMassC             0.000
PSizeD01           0.000
PSizeD02           0.000
PSizeD03           0.000
PSizeD04           0.000
PSizeD05           0.000
PSizeD06           0.000
PSizeD07           0.000
PSizeD08           0.000
PSizeD09           0.000
PSizeD10           0.000
temp__k_           1.000
pv__pvu_           1.000
pot_temp__k_       1.000
eq_pott_temp__k_   1.000
spec_hum__g_kg_    1.000
u__m_s_            1.000
v__m_s_            1.000
w__mubar_s_        1.000
wind_speed__m_s_   1.000
wind_dir__deg_     1.000
h2o__ppmv_         1.000
rh___              1.000
z__0_1_g_m_        1.000
eq_latitude_deg_n_ 1.000
cc                 1.000
clwc_g_kg_         1.000
clic_g_kg_         1.000
p_strop__hpa_      1.000
p_dtrop__hpa_      1.000
t_strop__k_        1.000
t_dtrop__k_        1.000
pt_strop__k_       1.000
pt_dtrop__k_       1.000
pv_strop__pvu_     1.000
z_strop__01grav_m_ 1.000
z_dtrop__01grav_m_ 1.000
dp_strop__hpa_     1.000
dp_dtrop__hpa_     1.000
Ozone_sd           1.000
CO_sd              1.000
#
#-----------------------------
#------------------------------------------------------------
FILE HG_20051004_126_FRA_GRU_V07.txt
#------------------------------------------------------------
PARM COVERAGE[0-1]
TGM  1.000
GEM  0.000
#
#-----------------------------
#------------------------------------------------------------
FILE             INT_20051004_126_FRA_GRU_V14.txt
#------------------------------------------------------------
PARM             COVERAGE[0-1]
lon              1.000
lat              1.000
p                1.000
type             1.000
int_CO           0.929
int_O3           1.000
int_H2O_gas      0.000
int_NO           0.000
int_NOy          0.571
int_acetone      0.000
int_acetonitrile 0.000
int_CO2          0.000
int_CH4          0.000
int_h_rel_TP     0.143
int_PV           1.000
int_Tpot         1.000
int_z_km         1.000
int_dp_strop_hpa 1.000
int_dp_dtrop_hpa 1.000
int_pt_rel_sTP_K 1.000
int_pt_rel_dTP_K 1.000
int_z_rel_sTP_km 1.000
int_z_rel_dTP_km 1.000
int_eqlat        1.000
#
#-----------------------------
#------------------------------------------------------------
FILE        MA_20051004_126_FRA_GRU_10s_V05.txt
#------------------------------------------------------------
PARM        COVERAGE[0-1]
CRefTime    1.000
UTC_ARINC   1.000
FlightPhase 1.000
PosLat      1.000
PosLong     1.000
TrueHead    1.000
WindSpeed   1.000
WindDirTr   1.000
PitchAng    1.000
RollAng     1.000
StdAltitu   1.000
BaroAltit   1.000
TrAirSpeed  1.000
ToAirTmp    1.000
AltitRate   1.000
StcAirTmp   1.000
AngOAttck   1.000
TotPres     1.000
VertSpeed   1.000
GndSpeed    1.000
LocalTime   1.000
pstatic     1.000
Tpot        1.000
Altitude    1.000
#
#-----------------------------
#------------------------------------------------------------
FILE        MA_20051004_126_FRA_GRU_V05.txt
#------------------------------------------------------------
PARM        COVERAGE[0-1]
CRefTime    1.000
UTC_ARINC   0.979
FlightPhase 0.979
PosLat      0.979
PosLong     0.979
TrueHead    0.979
WindSpeed   0.979
WindDirTr   0.979
PitchAng    0.979
RollAng     0.979
StdAltitu   0.979
BaroAltit   0.979
TrAirSpeed  0.979
ToAirTmp    0.979
AltitRate   0.979
StcAirTmp   0.979
AngOAttck   0.979
TotPres     0.979
VertSpeed   0.979
GndSpeed    0.979
LocalTime   0.979
pstatic     0.979
Tpot        0.979
Altitude    0.979
#
#-----------------------------
#------------------------------------------------------------
FILE               MS_20051004_126_FRA_GRU_10s_V29.txt
#------------------------------------------------------------
PARM               COVERAGE[0-1]
FlightPhase        1.000
PosLat             1.000
PosLong            1.000
TrueHead           1.000
WindSpeed          1.000
WindDirTr          1.000
PitchAng           1.000
RollAng            1.000
StdAltitu          1.000
BaroAltit          1.000
TrAirSpeed         1.000
ToAirTmp           1.000
AltitRate          1.000
StcAirTmp          1.000
AngOAttck          1.000
TotPres            1.000
VertSpeed          1.000
GndSpeed           1.000
LocalTime          1.000
pstatic            1.000
Tpot               1.000
Altitude           1.000
SZA                1.000
H2Ostatus          0.944
H2Ogas             0.591
H2Ocloud           0.206
Ozone              0.947
H_rel_TP           0.187
NO                 0.000
NOy                0.717
NO2                0.000
TGM                0.936
GEM                0.000
CO                 0.851
CO2                0.000
CH4                0.000
CH4_Err            0.000
ACN                0.000
ACE                0.000
N4_12              0.935
N12                0.935
N18                0.935
PNumC              0.000
PSurfC             0.000
PVolC              0.000
PMassC             0.000
PSizeD01           0.000
PSizeD02           0.000
PSizeD03           0.000
PSizeD04           0.000
PSizeD05           0.000
PSizeD06           0.000
PSizeD07           0.000
PSizeD08           0.000
PSizeD09           0.000
PSizeD10           0.000
cpc1_amb_ncm3      0.000
cpc2_amb_ncm3      0.000
opc1_amb_ncm3      0.000
opc12_amb_ncm3     0.000
SC_Conc            0.000
BC_Mass_Conc       0.000
BC_Conc            0.000
temp__k_           1.000
pv__pvu_           1.000
pot_temp__k_       1.000
eq_pott_temp__k_   1.000
spec_hum__g_kg_    1.000
u__m_s_            1.000
v__m_s_            1.000
w__mubar_s_        1.000
wind_speed__m_s_   1.000
wind_dir__deg_     1.000
h2o__ppmv_         1.000
rh___              1.000
z__0_1_g_m_        1.000
eq_latitude_deg_n_ 1.000
cc                 1.000
clwc_g_kg_         1.000
clic_g_kg_         1.000
p_strop__hpa_      1.000
p_dtrop__hpa_      1.000
t_strop__k_        1.000
t_dtrop__k_        1.000
pt_strop__k_       1.000
pt_dtrop__k_       1.000
pv_strop__pvu_     1.000
z_strop__01grav_m_ 1.000
z_dtrop__01grav_m_ 1.000
dp_strop__hpa_     1.000
dp_dtrop__hpa_     1.000
#
#-----------------------------
#------------------------------------------------------------
FILE NO_20051004_126_FRA_GRU_10s_V03.txt
#------------------------------------------------------------
PARM COVERAGE[0-1]
NO   0.000
NOy  0.802
#
#-----------------------------
#------------------------------------------------------------
FILE NO_20051004_126_FRA_GRU_V02.txt
#------------------------------------------------------------
PARM COVERAGE[0-1]
NO   0.000
NOy  0.783
#
#-----------------------------
#------------------------------------------------------------
FILE     OM_20051004_126_FRA_GRU_10s_V04.txt
#------------------------------------------------------------
PARM     COVERAGE[0-1]
Ozone    0.999
H_rel_TP 0.198
#
#-----------------------------
#------------------------------------------------------------
FILE  OM_20051004_126_FRA_GRU_V02.txt
#------------------------------------------------------------
PARM  COVERAGE[0-1]
Ozone 1.000
#
#-----------------------------
#------------------------------------------------------------
FILE           SU_20051004_126_FRA_GRU_10s_V27.txt
#------------------------------------------------------------
PARM           COVERAGE[0-1]
FlightPhase    1.000
PosLat         1.000
PosLong        1.000
TrueHead       1.000
WindSpeed      1.000
WindDirTr      1.000
PitchAng       1.000
RollAng        1.000
StdAltitu      1.000
BaroAltit      1.000
TrAirSpeed     1.000
ToAirTmp       1.000
AltitRate      1.000
StcAirTmp      1.000
AngOAttck      1.000
TotPres        1.000
VertSpeed      1.000
GndSpeed       1.000
LocalTime      1.000
pstatic        1.000
Tpot           1.000
Altitude       1.000
SZA            1.000
H2Ostatus      0.944
H2Ogas         0.591
H2Ocloud       0.206
Ozone          0.947
H_rel_TP       0.187
NO             0.000
NOy            0.717
NO2            0.000
TGM            0.936
GEM            0.000
CO             0.851
CO2            0.000
CH4            0.000
CH4_Err        0.000
ACN            0.000
ACE            0.000
N4_12          0.935
N12            0.935
N18            0.935
PNumC          0.000
PSurfC         0.000
PVolC          0.000
PMassC         0.000
PSizeD01       0.000
PSizeD02       0.000
PSizeD03       0.000
PSizeD04       0.000
PSizeD05       0.000
PSizeD06       0.000
PSizeD07       0.000
PSizeD08       0.000
PSizeD09       0.000
PSizeD10       0.000
cpc1_amb_ncm3  0.000
cpc2_amb_ncm3  0.000
opc1_amb_ncm3  0.000
opc12_amb_ncm3 0.000
SC_Conc        0.000
BC_Mass_Conc   0.000
BC_Conc        0.000
#
#-----------------------------
#------------------------------------------------------------
FILE             WAS_20051004_126_FRA_GRU_V11.txt
#------------------------------------------------------------
PARM             COVERAGE[0-1]
lon              1.000
lat              1.000
p                1.000
type             1.000
ch4              0.000
d_ch4            0.000
co2              0.000
d_co2            0.000
n2o              0.000
d_n2o            0.000
sf6              0.000
d_sf6            0.000
Ethyne_MPI       0.000
Ethane_MPI       1.000
Propane_MPI      1.000
i_Butane_MPI     0.000
n_Butane_MPI     1.000
i_Pentane_MPI    1.000
n_Pentane_MPI    1.000
X2_MePentane_MPI 0.071
n_Hexane_MPI     0.214
Benzene_MPI      1.000
cyclohexane_MPI  0.000
i_Octane_MPI     0.000
n_Heptane_MPI    0.286
Toluene_MPI      0.929
n_Octane_MPI     0.000
Etbenzene_MPI    0.000
m_p_Xylene_MPI   0.000
o_Xylene_MPI     0.000
CH3Cl_MPI        0.000
Benzene_UEA      0.000
Toluene_UEA      0.000
CFC_12_UEA       0.000
CFC_11_UEA       0.000
CFC_113_UEA      0.000
HCFC_22_UEA      0.000
HCFC_142b_UEA    0.000
HCFC_141b_UEA    0.000
HFC_152a_UEA     0.000
CH3Cl_UEA        1.000
CH2Cl2_UEA       1.000
CHCl3_UEA        0.000
CCl4_UEA         0.000
CH3CCl3_UEA      0.000
CHClCCl2_UEA     0.000
C2Cl4_UEA        0.000
CH3Br_UEA        0.000
CH2BrCl_UEA      0.000
CHCl2Br_UEA      0.000
CH2Br2_UEA       0.000
CHBr3_UEA        0.000
CH3I_UEA         0.000
Halon_1301_UEA   0.000
CFC_114_UEA      0.000
Halon_1211_UEA   0.000
HCFC_123_UEA     0.000
CHClBr2_UEA      0.000
HFC_134a_UEA     0.000
HFC_124_UEA      0.000
HCFC_21_UEA      0.000
Halon_2402_UEA   0.000
nPB_UEA          0.000
EtONO2_UEA       0.000
DMS_UEA          0.000
COS_UEA          0.000
CS2_UEA          0.000
CH3ONO2_UEA      0.000
#
#-----------------------------
#------------------------------------------------------------
FILE      WA_20051004_126_FRA_GRU_10s_V02.txt
#------------------------------------------------------------
PARM      COVERAGE[0-1]
H2Ostatus 1.000
H2Ogas    0.626
H2Ocloud  0.219
#
#-----------------------------
#------------------------------------------------------------
FILE             WA_20051004_126_FRA_GRU_V02.txt
#------------------------------------------------------------
PARM             COVERAGE[0-1]
H2Otot           1.000
H2Ogas           0.000
H2Ocloud         1.000
CloudEnhancement 1.000
#
#-----------------------------
#------------------------------------------------------------
FILE   WB_20051004_126_FRA_GRU_V02.txt
#------------------------------------------------------------
PARM   COVERAGE[0-1]
H2Otot 1.000
