#------------------------------------------------------------
# FLIGHT 240
# STATUS FROM 2022-06-27T08:23:27+00:00
# FILES MISSING: HCF, P2C, PIC, PTR, SP2, WB
#------------------------------------------------------------
#
#-----------------------------
#------------------------------------------------------------
FILE       C2I_20080715_240_FRA_MAA_V11.txt
#------------------------------------------------------------
PARM       COVERAGE[0-1]
lon        1.000
lat        1.000
p          1.000
type       1.000
co2        1.000
d_co2      1.000
d13C       1.000
delta_d13C 1.000
d18O       1.000
delta_d18O 1.000
#
#-----------------------------
#------------------------------------------------------------
FILE  CN_20080715_240_FRA_MAA_10s_V08.txt
#------------------------------------------------------------
PARM  COVERAGE[0-1]
N4_12 0.994
N12   0.994
N18   0.994
#
#-----------------------------
#------------------------------------------------------------
FILE  CN_20080715_240_FRA_MAA_V08.txt
#------------------------------------------------------------
PARM  COVERAGE[0-1]
N4_12 1.000
N12   1.000
N18   1.000
#
#-----------------------------
#------------------------------------------------------------
FILE CO_20080715_240_FRA_MAA_10s_V25.txt
#------------------------------------------------------------
PARM COVERAGE[0-1]
CO   0.896
#
#-----------------------------
#------------------------------------------------------------
FILE CO_20080715_240_FRA_MAA_V25.txt
#------------------------------------------------------------
PARM COVERAGE[0-1]
CO   0.891
#
#-----------------------------
#------------------------------------------------------------
FILE        DIS_20080715_240_FRA_MAA_V01.txt
#------------------------------------------------------------
PARM        COVERAGE[0-1]
lon         1.000
lat         1.000
p           1.000
type        1.000
H2          1.000
delta_D     1.000
status_flag 1.000
repeats     1.000
#
#-----------------------------
#------------------------------------------------------------
FILE  GHG_20080715_240_FRA_MAA_V12.txt
#------------------------------------------------------------
PARM  COVERAGE[0-1]
lon   1.000
lat   1.000
p     1.000
type  1.000
CH4   1.000
d_CH4 1.000
CO2   1.000
d_CO2 1.000
N2O   1.000
d_N2O 1.000
SF6   1.000
d_SF6 1.000
#
#-----------------------------
#------------------------------------------------------------
FILE HG_20080715_240_FRA_MAA_10s_V08.txt
#------------------------------------------------------------
PARM COVERAGE[0-1]
TGM  1.000
GEM  0.000
#
#-----------------------------
#------------------------------------------------------------
FILE               HG_20080715_240_FRA_MAA_int_V09.txt
#------------------------------------------------------------
PARM               COVERAGE[0-1]
FlightPhase        1.000
PosLat             1.000
PosLong            1.000
TrueHead           1.000
WindSpeed          1.000
WindDirTr          1.000
PitchAng           1.000
RollAng            1.000
StdAltitu          1.000
BaroAltit          1.000
TrAirSpeed         1.000
ToAirTmp           1.000
AltitRate          1.000
StcAirTmp          1.000
AngOAttck          1.000
TotPres            1.000
VertSpeed          1.000
GndSpeed           1.000
LocalTime          1.000
pstatic            1.000
Tpot               1.000
Altitude           1.000
SZA                1.000
H2Ostatus          1.000
H2Ogas             1.000
H2Ocloud           1.000
Ozone              1.000
H_rel_TP2          0.402
NO                 0.557
NOy                0.979
NO2                0.000
Hg_TGM             1.000
Hg_GEM             0.000
CO                 1.000
CO2                0.000
CH4                0.000
CH4_Err            0.000
AN                 0.000
Ac                 0.000
N4_12              1.000
N12                1.000
N18                1.000
PNumC              0.000
PSurfC             0.000
PVolC              0.000
PMassC             0.000
PSizeD01           0.000
PSizeD02           0.000
PSizeD03           0.000
PSizeD04           0.000
PSizeD05           0.000
PSizeD06           0.000
PSizeD07           0.000
PSizeD08           0.000
PSizeD09           0.000
PSizeD10           0.000
temp__k_           1.000
pv__pvu_           1.000
pot_temp__k_       1.000
eq_pott_temp__k_   1.000
spec_hum__g_kg_    1.000
u__m_s_            1.000
v__m_s_            1.000
w__mubar_s_        1.000
wind_speed__m_s_   1.000
wind_dir__deg_     1.000
h2o__ppmv_         1.000
rh___              1.000
z__0_1_g_m_        1.000
eq_latitude_deg_n_ 1.000
cc                 1.000
clwc_g_kg_         1.000
clic_g_kg_         1.000
p_strop__hpa_      1.000
p_dtrop__hpa_      1.000
t_strop__k_        1.000
t_dtrop__k_        1.000
pt_strop__k_       1.000
pt_dtrop__k_       1.000
pv_strop__pvu_     1.000
z_strop__01grav_m_ 1.000
z_dtrop__01grav_m_ 1.000
dp_strop__hpa_     1.000
dp_dtrop__hpa_     1.000
Ozone_sd           1.000
CO_sd              1.000
#
#-----------------------------
#------------------------------------------------------------
FILE HG_20080715_240_FRA_MAA_V07.txt
#------------------------------------------------------------
PARM COVERAGE[0-1]
TGM  1.000
GEM  0.000
#
#-----------------------------
#------------------------------------------------------------
FILE             INT_20080715_240_FRA_MAA_V14.txt
#------------------------------------------------------------
PARM             COVERAGE[0-1]
lon              1.000
lat              1.000
p                1.000
type             1.000
int_CO           1.000
int_O3           1.000
int_H2O_gas      1.000
int_NO           0.500
int_NOy          0.857
int_acetone      0.000
int_acetonitrile 0.000
int_CO2          0.000
int_CH4          0.000
int_h_rel_TP     0.286
int_PV           1.000
int_Tpot         1.000
int_z_km         1.000
int_dp_strop_hpa 1.000
int_dp_dtrop_hpa 1.000
int_pt_rel_sTP_K 1.000
int_pt_rel_dTP_K 1.000
int_z_rel_sTP_km 1.000
int_z_rel_dTP_km 1.000
int_eqlat        1.000
#
#-----------------------------
#------------------------------------------------------------
FILE        MA_20080715_240_FRA_MAA_10s_V06.txt
#------------------------------------------------------------
PARM        COVERAGE[0-1]
CRefTime    1.000
UTC_ARINC   1.000
FlightPhase 1.000
PosLat      1.000
PosLong     1.000
TrueHead    1.000
WindSpeed   1.000
WindDirTr   1.000
PitchAng    1.000
RollAng     1.000
StdAltitu   1.000
BaroAltit   1.000
TrAirSpeed  1.000
ToAirTmp    1.000
AltitRate   1.000
StcAirTmp   1.000
AngOAttck   1.000
TotPres     1.000
VertSpeed   1.000
GndSpeed    1.000
LocalTime   1.000
pstatic     1.000
Tpot        1.000
Altitude    1.000
#
#-----------------------------
#------------------------------------------------------------
FILE        MA_20080715_240_FRA_MAA_V06.txt
#------------------------------------------------------------
PARM        COVERAGE[0-1]
CRefTime    1.000
UTC_ARINC   0.981
FlightPhase 0.981
PosLat      0.981
PosLong     0.981
TrueHead    0.981
WindSpeed   0.981
WindDirTr   0.981
PitchAng    0.981
RollAng     0.981
StdAltitu   0.981
BaroAltit   0.981
TrAirSpeed  0.981
ToAirTmp    0.981
AltitRate   0.981
StcAirTmp   0.981
AngOAttck   0.981
TotPres     0.981
VertSpeed   0.981
GndSpeed    0.981
LocalTime   0.981
pstatic     0.981
Tpot        0.981
Altitude    0.981
#
#-----------------------------
#------------------------------------------------------------
FILE               MS_20080715_240_FRA_MSA_10s_V28.txt
#------------------------------------------------------------
PARM               COVERAGE[0-1]
FlightPhase        1.000
PosLat             1.000
PosLong            1.000
TrueHead           1.000
WindSpeed          1.000
WindDirTr          1.000
PitchAng           1.000
RollAng            1.000
StdAltitu          1.000
BaroAltit          1.000
TrAirSpeed         1.000
ToAirTmp           1.000
AltitRate          1.000
StcAirTmp          1.000
AngOAttck          1.000
TotPres            1.000
VertSpeed          1.000
GndSpeed           1.000
LocalTime          1.000
pstatic            1.000
Tpot               1.000
Altitude           1.000
SZA                1.000
H2Ostatus          0.968
H2Ogas             0.968
H2Ocloud           0.968
Ozone              0.976
H_rel_TP           0.185
NO                 0.411
NOy                0.716
NO2                0.000
TGM                0.931
GEM                0.000
CO                 0.866
CO2                0.000
CH4                0.000
CH4_Err            0.000
ACN                0.000
ACE                0.000
N4_12              0.963
N12                0.963
N18                0.963
PNumC              0.000
PSurfC             0.000
PVolC              0.000
PMassC             0.000
PSizeD01           0.000
PSizeD02           0.000
PSizeD03           0.000
PSizeD04           0.000
PSizeD05           0.000
PSizeD06           0.000
PSizeD07           0.000
PSizeD08           0.000
PSizeD09           0.000
PSizeD10           0.000
cpc1_amb_ncm3      0.000
cpc2_amb_ncm3      0.000
opc1_amb_ncm3      0.000
opc12_amb_ncm3     0.000
SC_Conc            0.000
BC_Mass_Conc       0.000
BC_Conc            0.000
temp__k_           1.000
pv__pvu_           1.000
pot_temp__k_       1.000
eq_pott_temp__k_   1.000
spec_hum__g_kg_    1.000
u__m_s_            1.000
v__m_s_            1.000
w__mubar_s_        1.000
wind_speed__m_s_   1.000
wind_dir__deg_     1.000
h2o__ppmv_         1.000
rh___              1.000
z__0_1_g_m_        1.000
eq_latitude_deg_n_ 1.000
cc                 1.000
clwc_g_kg_         1.000
clic_g_kg_         1.000
p_strop__hpa_      1.000
p_dtrop__hpa_      1.000
t_strop__k_        1.000
t_dtrop__k_        1.000
pt_strop__k_       1.000
pt_dtrop__k_       1.000
pv_strop__pvu_     1.000
z_strop__01grav_m_ 1.000
z_dtrop__01grav_m_ 1.000
dp_strop__hpa_     1.000
dp_dtrop__hpa_     1.000
#
#-----------------------------
#------------------------------------------------------------
FILE NO_20080715_240_FRA_MAA_10s_V02.txt
#------------------------------------------------------------
PARM COVERAGE[0-1]
NO   0.457
NOy  0.796
#
#-----------------------------
#------------------------------------------------------------
FILE NO_20080715_240_FRA_MAA_V02.txt
#------------------------------------------------------------
PARM COVERAGE[0-1]
NO   0.449
NOy  0.782
#
#-----------------------------
#------------------------------------------------------------
FILE     OM_20080715_240_FRA_MAA_10s_V04.txt
#------------------------------------------------------------
PARM     COVERAGE[0-1]
Ozone    1.000
H_rel_TP 0.189
#
#-----------------------------
#------------------------------------------------------------
FILE  OM_20080715_240_FRA_MAA_V02.txt
#------------------------------------------------------------
PARM  COVERAGE[0-1]
Ozone 1.000
#
#-----------------------------
#------------------------------------------------------------
FILE           SU_20080715_240_FRA_SUA_10s_V23.txt
#------------------------------------------------------------
PARM           COVERAGE[0-1]
FlightPhase    1.000
PosLat         1.000
PosLong        1.000
TrueHead       1.000
WindSpeed      1.000
WindDirTr      1.000
PitchAng       1.000
RollAng        1.000
StdAltitu      1.000
BaroAltit      1.000
TrAirSpeed     1.000
ToAirTmp       1.000
AltitRate      1.000
StcAirTmp      1.000
AngOAttck      1.000
TotPres        1.000
VertSpeed      1.000
GndSpeed       1.000
LocalTime      1.000
pstatic        1.000
Tpot           1.000
Altitude       1.000
SZA            1.000
H2Ostatus      0.968
H2Ogas         0.968
H2Ocloud       0.968
Ozone          0.976
H_rel_TP       0.185
NO             0.411
NOy            0.716
NO2            0.000
TGM            0.931
GEM            0.000
CO             0.866
CO2            0.000
CH4            0.000
CH4_Err        0.000
ACN            0.000
ACE            0.000
N4_12          0.963
N12            0.963
N18            0.963
PNumC          0.000
PSurfC         0.000
PVolC          0.000
PMassC         0.000
PSizeD01       0.000
PSizeD02       0.000
PSizeD03       0.000
PSizeD04       0.000
PSizeD05       0.000
PSizeD06       0.000
PSizeD07       0.000
PSizeD08       0.000
PSizeD09       0.000
PSizeD10       0.000
cpc1_amb_ncm3  0.000
cpc2_amb_ncm3  0.000
opc1_amb_ncm3  0.000
opc12_amb_ncm3 0.000
SC_Conc        0.000
BC_Mass_Conc   0.000
BC_Conc        0.000
#
#-----------------------------
#------------------------------------------------------------
FILE             WAS_20080715_240_FRA_MAA_V11.txt
#------------------------------------------------------------
PARM             COVERAGE[0-1]
lon              1.000
lat              1.000
p                1.000
type             1.000
ch4              1.000
d_ch4            1.000
co2              1.000
d_co2            1.000
n2o              1.000
d_n2o            1.000
sf6              1.000
d_sf6            1.000
Ethyne_MPI       1.000
Ethane_MPI       1.000
Propane_MPI      1.000
i_Butane_MPI     1.000
n_Butane_MPI     1.000
i_Pentane_MPI    0.429
n_Pentane_MPI    0.786
X2_MePentane_MPI 0.000
n_Hexane_MPI     0.357
Benzene_MPI      0.929
cyclohexane_MPI  0.000
i_Octane_MPI     0.000
n_Heptane_MPI    0.071
Toluene_MPI      0.214
n_Octane_MPI     0.143
Etbenzene_MPI    0.000
m_p_Xylene_MPI   0.000
o_Xylene_MPI     0.000
CH3Cl_MPI        1.000
Benzene_UEA      1.000
Toluene_UEA      0.929
CFC_12_UEA       1.000
CFC_11_UEA       1.000
CFC_113_UEA      1.000
HCFC_22_UEA      1.000
HCFC_142b_UEA    1.000
HCFC_141b_UEA    0.000
HFC_152a_UEA     1.000
CH3Cl_UEA        1.000
CH2Cl2_UEA       1.000
CHCl3_UEA        1.000
CCl4_UEA         1.000
CH3CCl3_UEA      1.000
CHClCCl2_UEA     0.071
C2Cl4_UEA        1.000
CH3Br_UEA        1.000
CH2BrCl_UEA      0.429
CHCl2Br_UEA      0.857
CH2Br2_UEA       1.000
CHBr3_UEA        0.857
CH3I_UEA         0.643
Halon_1301_UEA   1.000
CFC_114_UEA      1.000
Halon_1211_UEA   1.000
HCFC_123_UEA     1.000
CHClBr2_UEA      0.571
HFC_134a_UEA     1.000
HFC_124_UEA      1.000
HCFC_21_UEA      1.000
Halon_2402_UEA   1.000
nPB_UEA          0.000
EtONO2_UEA       0.357
DMS_UEA          0.000
COS_UEA          1.000
CS2_UEA          0.000
CH3ONO2_UEA      0.929
#
#-----------------------------
#------------------------------------------------------------
FILE      WA_20080715_240_FRA_MAA_10s_V02.txt
#------------------------------------------------------------
PARM      COVERAGE[0-1]
H2Ostatus 1.000
H2Ogas    1.000
H2Ocloud  1.000
#
#-----------------------------
#------------------------------------------------------------
FILE             WA_20080715_240_FRA_MAA_V02.txt
#------------------------------------------------------------
PARM             COVERAGE[0-1]
H2Otot           0.999
H2Ogas           1.000
H2Ocloud         1.000
CloudEnhancement 1.000
