#------------------------------------------------------------
# FLIGHT 433
# STATUS FROM 2022-06-27T08:34:05+00:00
# FILES MISSING: HCF, P2C, PIC, PTR, SP2
#------------------------------------------------------------
#
#-----------------------------
#------------------------------------------------------------
FILE Ac_20130702_433_FRA_CCS_10s_V02.txt
#------------------------------------------------------------
PARM COVERAGE[0-1]
Ac   0.260
#
#-----------------------------
#------------------------------------------------------------
FILE AN_20130702_433_FRA_CCS_10s_V01.txt
#------------------------------------------------------------
PARM COVERAGE[0-1]
AN   0.256
#
#-----------------------------
#------------------------------------------------------------
FILE    C2_20130702_433_FRA_CCS_10s_V05.txt
#------------------------------------------------------------
PARM    COVERAGE[0-1]
CO2_pre 0.931
CO2     0.742
#
#-----------------------------
#------------------------------------------------------------
FILE    C2_20130702_433_FRA_CCS_V05.txt
#------------------------------------------------------------
PARM    COVERAGE[0-1]
CO2_pre 0.914
CO2     0.726
#
#-----------------------------
#------------------------------------------------------------
FILE    CM_20130702_433_FRA_CCS_10s_V02.txt
#------------------------------------------------------------
PARM    COVERAGE[0-1]
CH4     1.000
CH4_Err 1.000
#
#-----------------------------
#------------------------------------------------------------
FILE CM_20130702_433_FRA_CCS_V02.txt
#------------------------------------------------------------
PARM COVERAGE[0-1]
CH4  1.000
#
#-----------------------------
#------------------------------------------------------------
FILE  CN_20130702_433_FRA_CCS_10s_V08.txt
#------------------------------------------------------------
PARM  COVERAGE[0-1]
N4_12 0.994
N12   0.994
N18   0.994
#
#-----------------------------
#------------------------------------------------------------
FILE  CN_20130702_433_FRA_CCS_V08.txt
#------------------------------------------------------------
PARM  COVERAGE[0-1]
N4_12 1.000
N12   1.000
N18   1.000
#
#-----------------------------
#------------------------------------------------------------
FILE CO_20130702_433_FRA_CCS_10s_V25.txt
#------------------------------------------------------------
PARM COVERAGE[0-1]
CO   0.877
#
#-----------------------------
#------------------------------------------------------------
FILE CO_20130702_433_FRA_CCS_V25.txt
#------------------------------------------------------------
PARM COVERAGE[0-1]
CO   0.869
#
#-----------------------------
#------------------------------------------------------------
FILE     DD_20130702_433_FRA_CCS_10s_V02.txt
#------------------------------------------------------------
PARM     COVERAGE[0-1]
SO2_dSCD 0.998
SO2_Err  0.998
BrO_dSCD 0.997
BrO_Err  0.997
O3_dSCD  0.997
O3_Err   0.997
NO2_dSCD 0.996
NO2_Err  0.996
O4_dSCD  0.996
O4_Err   0.996
#
#-----------------------------
#------------------------------------------------------------
FILE     DD_20130702_433_FRA_CCS_V02.txt
#------------------------------------------------------------
PARM     COVERAGE[0-1]
SO2_dSCD 0.998
SO2_Err  0.998
BrO_dSCD 0.997
BrO_Err  0.997
O3_dSCD  0.997
O3_Err   0.997
NO2_dSCD 0.997
NO2_Err  0.997
O4_dSCD  0.997
O4_Err   0.997
#
#-----------------------------
#------------------------------------------------------------
FILE     DN_20130702_433_FRA_CCS_10s_V02.txt
#------------------------------------------------------------
PARM     COVERAGE[0-1]
SO2_dSCD 0.981
SO2_Err  0.981
BrO_dSCD 0.972
BrO_Err  0.972
O3_dSCD  0.972
O3_Err   0.972
NO2_dSCD 0.977
NO2_Err  0.977
O4_dSCD  0.977
O4_Err   0.977
#
#-----------------------------
#------------------------------------------------------------
FILE     DN_20130702_433_FRA_CCS_V02.txt
#------------------------------------------------------------
PARM     COVERAGE[0-1]
SO2_dSCD 0.982
SO2_Err  0.982
BrO_dSCD 0.972
BrO_Err  0.972
O3_dSCD  0.972
O3_Err   0.972
NO2_dSCD 0.977
NO2_Err  0.977
O4_dSCD  0.977
O4_Err   0.977
#
#-----------------------------
#------------------------------------------------------------
FILE     DU_20130702_433_FRA_CCS_10s_V02.txt
#------------------------------------------------------------
PARM     COVERAGE[0-1]
SO2_dSCD 0.997
SO2_Err  0.997
BrO_dSCD 0.998
BrO_Err  0.998
O3_dSCD  0.998
O3_Err   0.998
NO2_dSCD 0.999
NO2_Err  0.999
O4_dSCD  0.999
O4_Err   0.999
#
#-----------------------------
#------------------------------------------------------------
FILE     DU_20130702_433_FRA_CCS_V02.txt
#------------------------------------------------------------
PARM     COVERAGE[0-1]
SO2_dSCD 0.997
SO2_Err  0.997
BrO_dSCD 0.998
BrO_Err  0.998
O3_dSCD  0.998
O3_Err   0.998
NO2_dSCD 0.999
NO2_Err  0.999
O4_dSCD  0.999
O4_Err   0.999
#
#-----------------------------
#------------------------------------------------------------
FILE  GHG_20130702_433_FRA_CCS_V12.txt
#------------------------------------------------------------
PARM  COVERAGE[0-1]
lon   1.000
lat   1.000
p     1.000
type  1.000
CH4   1.000
d_CH4 1.000
CO2   1.000
d_CO2 1.000
N2O   1.000
d_N2O 1.000
SF6   1.000
d_SF6 1.000
#
#-----------------------------
#------------------------------------------------------------
FILE HG_20130702_433_FRA_CCS_10s_V08.txt
#------------------------------------------------------------
PARM COVERAGE[0-1]
TGM  0.982
GEM  0.000
#
#-----------------------------
#------------------------------------------------------------
FILE               HG_20130702_433_FRA_CCS_int_V09.txt
#------------------------------------------------------------
PARM               COVERAGE[0-1]
FlightPhase        1.000
PosLat             1.000
PosLong            1.000
TrueHead           1.000
WindSpeed          1.000
WindDirTr          1.000
PitchAng           1.000
RollAng            1.000
StdAltitu          1.000
BaroAltit          1.000
TrAirSpeed         1.000
ToAirTmp           1.000
AltitRate          1.000
StcAirTmp          1.000
AngOAttck          1.000
TotPres            1.000
VertSpeed          1.000
GndSpeed           1.000
LocalTime          1.000
pstatic            1.000
Tpot               1.000
Altitude           1.000
SZA                1.000
H2Ostatus          1.000
H2Ogas             1.000
H2Ocloud           1.000
Ozone              1.000
H_rel_TP2          0.464
NO                 0.946
NOy                0.000
NO2                0.000
Hg_TGM             0.982
Hg_GEM             0.000
CO                 1.000
CO2                0.946
CH4                1.000
CH4_Err            1.000
AN                 0.857
Ac                 0.875
N4_12              1.000
N12                1.000
N18                1.000
PNumC              0.964
PSurfC             0.964
PVolC              0.964
PMassC             0.964
PSizeD01           0.964
PSizeD02           0.964
PSizeD03           0.964
PSizeD04           0.964
PSizeD05           0.964
PSizeD06           0.964
PSizeD07           0.964
PSizeD08           0.964
PSizeD09           0.964
PSizeD10           0.964
temp__k_           1.000
pv__pvu_           1.000
pot_temp__k_       1.000
eq_pott_temp__k_   1.000
spec_hum__g_kg_    1.000
u__m_s_            1.000
v__m_s_            1.000
w__mubar_s_        1.000
wind_speed__m_s_   1.000
wind_dir__deg_     1.000
h2o__ppmv_         1.000
rh___              1.000
z__0_1_g_m_        1.000
eq_latitude_deg_n_ 1.000
cc                 1.000
clwc_g_kg_         1.000
clic_g_kg_         1.000
p_strop__hpa_      1.000
p_dtrop__hpa_      1.000
t_strop__k_        1.000
t_dtrop__k_        1.000
pt_strop__k_       1.000
pt_dtrop__k_       1.000
pv_strop__pvu_     1.000
z_strop__01grav_m_ 1.000
z_dtrop__01grav_m_ 1.000
dp_strop__hpa_     1.000
dp_dtrop__hpa_     1.000
Ozone_sd           1.000
CO_sd              1.000
#
#-----------------------------
#------------------------------------------------------------
FILE HG_20130702_433_FRA_CCS_V07.txt
#------------------------------------------------------------
PARM COVERAGE[0-1]
TGM  0.982
GEM  0.000
#
#-----------------------------
#------------------------------------------------------------
FILE             INT_20130702_433_FRA_CCS_V14.txt
#------------------------------------------------------------
PARM             COVERAGE[0-1]
lon              1.000
lat              1.000
p                1.000
type             1.000
int_CO           0.786
int_O3           1.000
int_H2O_gas      1.000
int_NO           0.929
int_NOy          0.000
int_acetone      0.000
int_acetonitrile 0.000
int_CO2          0.643
int_CH4          1.000
int_h_rel_TP     0.214
int_PV           1.000
int_Tpot         1.000
int_z_km         1.000
int_dp_strop_hpa 1.000
int_dp_dtrop_hpa 1.000
int_pt_rel_sTP_K 1.000
int_pt_rel_dTP_K 1.000
int_z_rel_sTP_km 1.000
int_z_rel_dTP_km 1.000
int_eqlat        1.000
#
#-----------------------------
#------------------------------------------------------------
FILE        MA_20130702_433_FRA_CCS_10s_V09.txt
#------------------------------------------------------------
PARM        COVERAGE[0-1]
CRefTime    1.000
UTC_ARINC   1.000
FlightPhase 1.000
PosLat      1.000
PosLong     1.000
TrueHead    1.000
WindSpeed   1.000
WindDirTr   1.000
PitchAng    1.000
RollAng     1.000
StdAltitu   1.000
BaroAltit   1.000
TrAirSpeed  1.000
ToAirTmp    1.000
AltitRate   1.000
StcAirTmp   1.000
AngOAttck   1.000
TotPres     1.000
VertSpeed   1.000
GndSpeed    1.000
LocalTime   1.000
pstatic     1.000
Tpot        1.000
Altitude    1.000
#
#-----------------------------
#------------------------------------------------------------
FILE        MA_20130702_433_FRA_CCS_V09.txt
#------------------------------------------------------------
PARM        COVERAGE[0-1]
CRefTime    1.000
UTC_ARINC   1.000
FlightPhase 1.000
PosLat      1.000
PosLong     1.000
TrueHead    1.000
WindSpeed   1.000
WindDirTr   1.000
PitchAng    1.000
RollAng     1.000
StdAltitu   1.000
BaroAltit   1.000
TrAirSpeed  1.000
ToAirTmp    1.000
AltitRate   1.000
StcAirTmp   1.000
AngOAttck   1.000
TotPres     1.000
VertSpeed   1.000
GndSpeed    1.000
LocalTime   1.000
pstatic     1.000
Tpot        1.000
Altitude    1.000
#
#-----------------------------
#------------------------------------------------------------
FILE               MS_20130702_433_FRA_CCS_10s_V13.txt
#------------------------------------------------------------
PARM               COVERAGE[0-1]
FlightPhase        1.000
PosLat             1.000
PosLong            1.000
TrueHead           1.000
WindSpeed          1.000
WindDirTr          1.000
PitchAng           1.000
RollAng            1.000
StdAltitu          1.000
BaroAltit          1.000
TrAirSpeed         1.000
ToAirTmp           1.000
AltitRate          1.000
StcAirTmp          1.000
AngOAttck          1.000
TotPres            1.000
VertSpeed          1.000
GndSpeed           1.000
LocalTime          1.000
pstatic            1.000
Tpot               1.000
Altitude           1.000
SZA                1.000
H2Ostatus          0.967
H2Ogas             0.966
H2Ocloud           0.966
Ozone              0.972
H_rel_TP           0.199
NO                 0.759
NOy                0.000
NO2                0.000
TGM                0.935
GEM                0.000
CO                 0.831
CO2                0.680
CH4                0.968
CH4_Err            0.968
ACN                0.237
ACE                0.241
N4_12              0.958
N12                0.958
N18                0.958
PNumC              0.892
PSurfC             0.892
PVolC              0.892
PMassC             0.892
PSizeD01           0.892
PSizeD02           0.892
PSizeD03           0.892
PSizeD04           0.892
PSizeD05           0.892
PSizeD06           0.892
PSizeD07           0.892
PSizeD08           0.892
PSizeD09           0.892
PSizeD10           0.892
cpc1_amb_ncm3      0.000
cpc2_amb_ncm3      0.000
opc1_amb_ncm3      0.000
opc12_amb_ncm3     0.000
SC_Conc            0.000
BC_Mass_Conc       0.000
BC_Conc            0.000
temp__k_           1.000
pv__pvu_           1.000
pot_temp__k_       1.000
eq_pott_temp__k_   1.000
spec_hum__g_kg_    1.000
u__m_s_            1.000
v__m_s_            1.000
w__mubar_s_        1.000
wind_speed__m_s_   1.000
wind_dir__deg_     1.000
h2o__ppmv_         1.000
rh___              1.000
z__0_1_g_m_        1.000
eq_latitude_deg_n_ 1.000
cc                 1.000
clwc_g_kg_         1.000
clic_g_kg_         1.000
p_strop__hpa_      1.000
p_dtrop__hpa_      1.000
t_strop__k_        1.000
t_dtrop__k_        1.000
pt_strop__k_       0.000
pt_dtrop__k_       0.000
pv_strop__pvu_     1.000
z_strop__01grav_m_ 1.000
z_dtrop__01grav_m_ 1.000
dp_strop__hpa_     1.000
dp_dtrop__hpa_     1.000
#
#-----------------------------
#------------------------------------------------------------
FILE NO_20130702_433_FRA_CCS_10s_V02.txt
#------------------------------------------------------------
PARM COVERAGE[0-1]
NO   0.848
NOy  0.000
NO2  0.000
#
#-----------------------------
#------------------------------------------------------------
FILE NO_20130702_433_FRA_CCS_V02.txt
#------------------------------------------------------------
PARM COVERAGE[0-1]
NO   0.819
NOy  0.000
NO2  0.000
#
#-----------------------------
#------------------------------------------------------------
FILE     OM_20130702_433_FRA_CCS_10s_V03.txt
#------------------------------------------------------------
PARM     COVERAGE[0-1]
Ozone    1.000
H_rel_TP 0.205
#
#-----------------------------
#------------------------------------------------------------
FILE  OM_20130702_433_FRA_CCS_V02.txt
#------------------------------------------------------------
PARM  COVERAGE[0-1]
Ozone 1.000
#
#-----------------------------
#------------------------------------------------------------
FILE     SD_20130702_433_FRA_CCS_10s_V14.txt
#------------------------------------------------------------
PARM     COVERAGE[0-1]
PNumC    0.926
PSurfC   0.926
PVolC    0.926
PMassC   0.926
PSizeD01 0.926
PSizeD02 0.926
PSizeD03 0.926
PSizeD04 0.926
PSizeD05 0.926
PSizeD06 0.926
PSizeD07 0.926
PSizeD08 0.926
PSizeD09 0.926
PSizeD10 0.926
#
#-----------------------------
#------------------------------------------------------------
FILE           SU_20130702_433_FRA_CCS_10s_V22.txt
#------------------------------------------------------------
PARM           COVERAGE[0-1]
FlightPhase    1.000
PosLat         1.000
PosLong        1.000
TrueHead       1.000
WindSpeed      1.000
WindDirTr      1.000
PitchAng       1.000
RollAng        1.000
StdAltitu      1.000
BaroAltit      1.000
TrAirSpeed     1.000
ToAirTmp       1.000
AltitRate      1.000
StcAirTmp      1.000
AngOAttck      1.000
TotPres        1.000
VertSpeed      1.000
GndSpeed       1.000
LocalTime      1.000
pstatic        1.000
Tpot           1.000
Altitude       1.000
SZA            1.000
H2Ostatus      0.967
H2Ogas         0.966
H2Ocloud       0.966
Ozone          0.972
H_rel_TP       0.199
NO             0.759
NOy            0.000
NO2            0.000
TGM            0.935
GEM            0.000
CO             0.831
CO2            0.680
CH4            0.968
CH4_Err        0.968
ACN            0.237
ACE            0.241
N4_12          0.958
N12            0.958
N18            0.958
PNumC          0.892
PSurfC         0.892
PVolC          0.892
PMassC         0.892
PSizeD01       0.892
PSizeD02       0.892
PSizeD03       0.892
PSizeD04       0.892
PSizeD05       0.892
PSizeD06       0.892
PSizeD07       0.892
PSizeD08       0.892
PSizeD09       0.892
PSizeD10       0.892
cpc1_amb_ncm3  0.000
cpc2_amb_ncm3  0.000
opc1_amb_ncm3  0.000
opc12_amb_ncm3 0.000
SC_Conc        0.000
BC_Mass_Conc   0.000
BC_Conc        0.000
#
#-----------------------------
#------------------------------------------------------------
FILE             WAS_20130702_433_FRA_CCS_V11.txt
#------------------------------------------------------------
PARM             COVERAGE[0-1]
lon              1.000
lat              1.000
p                1.000
type             1.000
ch4              1.000
d_ch4            1.000
co2              1.000
d_co2            1.000
n2o              1.000
d_n2o            1.000
sf6              1.000
d_sf6            1.000
Ethyne_MPI       1.000
Ethane_MPI       1.000
Propane_MPI      1.000
i_Butane_MPI     0.857
n_Butane_MPI     1.000
i_Pentane_MPI    0.500
n_Pentane_MPI    0.786
X2_MePentane_MPI 0.071
n_Hexane_MPI     0.214
Benzene_MPI      0.714
cyclohexane_MPI  0.000
i_Octane_MPI     0.000
n_Heptane_MPI    0.000
Toluene_MPI      0.357
n_Octane_MPI     0.000
Etbenzene_MPI    0.000
m_p_Xylene_MPI   0.000
o_Xylene_MPI     0.000
CH3Cl_MPI        1.000
Benzene_UEA      1.000
Toluene_UEA      1.000
CFC_12_UEA       1.000
CFC_11_UEA       1.000
CFC_113_UEA      0.000
HCFC_22_UEA      1.000
HCFC_142b_UEA    1.000
HCFC_141b_UEA    1.000
HFC_152a_UEA     1.000
CH3Cl_UEA        1.000
CH2Cl2_UEA       1.000
CHCl3_UEA        1.000
CCl4_UEA         1.000
CH3CCl3_UEA      1.000
CHClCCl2_UEA     0.000
C2Cl4_UEA        1.000
CH3Br_UEA        1.000
CH2BrCl_UEA      0.000
CHCl2Br_UEA      0.000
CH2Br2_UEA       1.000
CHBr3_UEA        1.000
CH3I_UEA         1.000
Halon_1301_UEA   1.000
CFC_114_UEA      0.000
Halon_1211_UEA   1.000
HCFC_123_UEA     0.000
CHClBr2_UEA      0.000
HFC_134a_UEA     1.000
HFC_124_UEA      0.000
HCFC_21_UEA      0.000
Halon_2402_UEA   0.000
nPB_UEA          0.000
EtONO2_UEA       0.000
DMS_UEA          0.000
COS_UEA          1.000
CS2_UEA          0.000
CH3ONO2_UEA      0.000
#
#-----------------------------
#------------------------------------------------------------
FILE      WA_20130702_433_FRA_CCS_10s_V02.txt
#------------------------------------------------------------
PARM      COVERAGE[0-1]
H2Ostatus 1.000
H2Ogas    0.999
H2Ocloud  0.999
#
#-----------------------------
#------------------------------------------------------------
FILE             WA_20130702_433_FRA_CCS_V02.txt
#------------------------------------------------------------
PARM             COVERAGE[0-1]
H2Otot           1.000
H2Ogas           1.000
H2Ocloud         1.000
CloudEnhancement 1.000
#
#-----------------------------
#------------------------------------------------------------
FILE             WB_20130702_433_FRA_CCS_V02.txt
#------------------------------------------------------------
PARM             COVERAGE[0-1]
H2Otot           1.000
RHtot            1.000
CloudEnhancement 1.000
#
#-----------------------------
#------------------------------------------------------------
FILE       WI_20130702_433_FRA_CCS_10s_V04.txt
#------------------------------------------------------------
PARM       COVERAGE[0-1]
deltaD     0.041
deltaD_Err 0.041
