#------------------------------------------------------------
# FLIGHT 492
# STATUS FROM 2022-06-27T08:37:22+00:00
# FILES MISSING: HCF, P2C, PIC, PTR
#------------------------------------------------------------
#
#-----------------------------
#------------------------------------------------------------
FILE Ac_20150115_492_GRU_MUC_10s_V01.txt
#------------------------------------------------------------
PARM COVERAGE[0-1]
Ac   0.267
#
#-----------------------------
#------------------------------------------------------------
FILE AN_20150115_492_GRU_MUC_10s_V01.txt
#------------------------------------------------------------
PARM COVERAGE[0-1]
AN   0.248
#
#-----------------------------
#------------------------------------------------------------
FILE    CM_20150115_492_GRU_MUC_10s_V01.txt
#------------------------------------------------------------
PARM    COVERAGE[0-1]
CH4     1.000
CH4_Err 1.000
#
#-----------------------------
#------------------------------------------------------------
FILE CM_20150115_492_GRU_MUC_V01.txt
#------------------------------------------------------------
PARM COVERAGE[0-1]
CH4  1.000
#
#-----------------------------
#------------------------------------------------------------
FILE  CN_20150115_492_GRU_MUC_10s_V08.txt
#------------------------------------------------------------
PARM  COVERAGE[0-1]
N4_12 0.988
N12   0.988
N18   0.988
#
#-----------------------------
#------------------------------------------------------------
FILE  CN_20150115_492_GRU_MUC_V08.txt
#------------------------------------------------------------
PARM  COVERAGE[0-1]
N4_12 1.000
N12   1.000
N18   1.000
#
#-----------------------------
#------------------------------------------------------------
FILE CO_20150115_492_GRU_MUC_10s_V02.txt
#------------------------------------------------------------
PARM COVERAGE[0-1]
CO   0.877
#
#-----------------------------
#------------------------------------------------------------
FILE CO_20150115_492_GRU_MUC_V02.txt
#------------------------------------------------------------
PARM COVERAGE[0-1]
CO   0.866
#
#-----------------------------
#------------------------------------------------------------
FILE  GHG_20150115_492_GRU_MUC_V03.txt
#------------------------------------------------------------
PARM  COVERAGE[0-1]
lon   1.000
lat   1.000
p     1.000
type  1.000
CH4   1.000
d_CH4 1.000
CO2   1.000
d_CO2 1.000
N2O   1.000
d_N2O 1.000
SF6   1.000
d_SF6 1.000
#
#-----------------------------
#------------------------------------------------------------
FILE HG_20150115_492_GRU_MUC_10s_V11.txt
#------------------------------------------------------------
PARM COVERAGE[0-1]
TGM  1.000
GEM  0.000
#
#-----------------------------
#------------------------------------------------------------
FILE               HG_20150115_492_GRU_MUC_int_V01.txt
#------------------------------------------------------------
PARM               COVERAGE[0-1]
FlightPhase        1.000
PosLat             1.000
PosLong            1.000
TrueHead           1.000
WindSpeed          1.000
WindDirTr          1.000
PitchAng           1.000
RollAng            1.000
StdAltitu          1.000
BaroAltit          1.000
TrAirSpeed         1.000
ToAirTmp           1.000
AltitRate          1.000
StcAirTmp          1.000
AngOAttck          1.000
TotPres            1.000
VertSpeed          1.000
GndSpeed           1.000
LocalTime          1.000
pstatic            1.000
Tpot               1.000
Altitude           1.000
SZA                1.000
H2Ostatus          1.000
H2Ogas             1.000
H2Ocloud           1.000
Ozone              1.000
H_rel_TP2          0.814
NO                 0.000
NOy                0.946
NO2                0.000
Hg_TGM             1.000
Hg_GEM             0.000
CO                 1.000
CO2                0.000
CH4                1.000
CH4_Err            1.000
AN                 0.798
Ac                 0.860
N4_12              1.000
N12                1.000
N18                1.000
PNumC              0.969
PSurfC             0.969
PVolC              0.969
PMassC             0.969
PSizeD01           0.969
PSizeD02           0.969
PSizeD03           0.969
PSizeD04           0.969
PSizeD05           0.969
PSizeD06           0.969
PSizeD07           0.969
PSizeD08           0.969
PSizeD09           0.969
PSizeD10           0.969
temp__k_           1.000
pv__pvu_           1.000
pot_temp__k_       1.000
eq_pott_temp__k_   1.000
spec_hum__g_kg_    1.000
u__m_s_            1.000
v__m_s_            1.000
w__mubar_s_        1.000
wind_speed__m_s_   1.000
wind_dir__deg_     1.000
h2o__ppmv_         1.000
rh___              1.000
z__0_1_g_m_        1.000
eq_latitude_deg_n_ 1.000
cc                 1.000
clwc_g_kg_         1.000
clic_g_kg_         1.000
p_strop__hpa_      1.000
p_dtrop__hpa_      1.000
t_strop__k_        1.000
t_dtrop__k_        1.000
pt_strop__k_       1.000
pt_dtrop__k_       1.000
pv_strop__pvu_     1.000
z_strop__01grav_m_ 1.000
z_dtrop__01grav_m_ 1.000
dp_strop__hpa_     1.000
dp_dtrop__hpa_     1.000
Ozone_sd           1.000
CO_sd              1.000
#
#-----------------------------
#------------------------------------------------------------
FILE HG_20150115_492_GRU_MUC_V11.txt
#------------------------------------------------------------
PARM COVERAGE[0-1]
TGM  1.000
GEM  0.000
#
#-----------------------------
#------------------------------------------------------------
FILE             INT_20150115_492_GRU_MUC_V05.txt
#------------------------------------------------------------
PARM             COVERAGE[0-1]
lon              1.000
lat              1.000
p                1.000
type             1.000
int_CO           0.929
int_O3           1.000
int_H2O_gas      1.000
int_NO           0.000
int_NOy          0.929
int_acetone      0.000
int_acetonitrile 0.000
int_CO2          0.000
int_CH4          1.000
int_h_rel_TP     0.214
int_PV           1.000
int_Tpot         1.000
int_z_km         1.000
int_dp_strop_hpa 1.000
int_dp_dtrop_hpa 1.000
int_pt_rel_sTP_K 1.000
int_pt_rel_dTP_K 1.000
int_z_rel_sTP_km 1.000
int_z_rel_dTP_km 1.000
int_eqlat        1.000
#
#-----------------------------
#------------------------------------------------------------
FILE        MA_20150115_492_GRU_MUC_10s_V01.txt
#------------------------------------------------------------
PARM        COVERAGE[0-1]
CRefTime    1.000
UTC_ARINC   1.000
FlightPhase 1.000
PosLat      1.000
PosLong     1.000
TrueHead    1.000
WindSpeed   1.000
WindDirTr   1.000
PitchAng    1.000
RollAng     1.000
StdAltitu   1.000
BaroAltit   1.000
TrAirSpeed  1.000
ToAirTmp    1.000
AltitRate   1.000
StcAirTmp   1.000
AngOAttck   1.000
TotPres     1.000
VertSpeed   1.000
GndSpeed    1.000
LocalTime   1.000
pstatic     1.000
Tpot        1.000
Altitude    1.000
#
#-----------------------------
#------------------------------------------------------------
FILE        MA_20150115_492_GRU_MUC_V01.txt
#------------------------------------------------------------
PARM        COVERAGE[0-1]
CRefTime    1.000
UTC_ARINC   1.000
FlightPhase 1.000
PosLat      1.000
PosLong     1.000
TrueHead    1.000
WindSpeed   1.000
WindDirTr   1.000
PitchAng    1.000
RollAng     1.000
StdAltitu   1.000
BaroAltit   1.000
TrAirSpeed  1.000
ToAirTmp    1.000
AltitRate   1.000
StcAirTmp   1.000
AngOAttck   1.000
TotPres     1.000
VertSpeed   1.000
GndSpeed    1.000
LocalTime   1.000
pstatic     1.000
Tpot        1.000
Altitude    1.000
#
#-----------------------------
#------------------------------------------------------------
FILE ME_20150115_492_GRU_MUC_10s_V01.txt
#------------------------------------------------------------
PARM COVERAGE[0-1]
ME   0.248
#
#-----------------------------
#------------------------------------------------------------
FILE               MS_20150115_492_GRU_MUC_10s_V11.txt
#------------------------------------------------------------
PARM               COVERAGE[0-1]
FlightPhase        1.000
PosLat             1.000
PosLong            1.000
TrueHead           1.000
WindSpeed          1.000
WindDirTr          1.000
PitchAng           1.000
RollAng            1.000
StdAltitu          1.000
BaroAltit          1.000
TrAirSpeed         1.000
ToAirTmp           1.000
AltitRate          1.000
StcAirTmp          1.000
AngOAttck          1.000
TotPres            1.000
VertSpeed          1.000
GndSpeed           1.000
LocalTime          1.000
pstatic            1.000
Tpot               1.000
Altitude           1.000
SZA                1.000
H2Ostatus          0.982
H2Ogas             0.980
H2Ocloud           0.980
Ozone              0.980
H_rel_TP           0.189
NO                 0.000
NOy                0.798
NO2                0.000
TGM                0.969
GEM                0.000
CO                 0.855
CO2                0.000
CH4                0.980
CH4_Err            0.980
ACN                0.234
ACE                0.251
N4_12              0.963
N12                0.963
N18                0.963
PNumC              0.924
PSurfC             0.924
PVolC              0.924
PMassC             0.924
PSizeD01           0.924
PSizeD02           0.924
PSizeD03           0.924
PSizeD04           0.924
PSizeD05           0.924
PSizeD06           0.924
PSizeD07           0.924
PSizeD08           0.924
PSizeD09           0.924
PSizeD10           0.924
cpc1_amb_ncm3      0.000
cpc2_amb_ncm3      0.000
opc1_amb_ncm3      0.000
opc12_amb_ncm3     0.000
SC_Conc            0.985
BC_Mass_Conc       0.985
BC_Conc            0.985
temp__k_           1.000
pv__pvu_           1.000
pot_temp__k_       1.000
eq_pott_temp__k_   1.000
spec_hum__g_kg_    1.000
u__m_s_            1.000
v__m_s_            1.000
w__mubar_s_        1.000
wind_speed__m_s_   1.000
wind_dir__deg_     1.000
h2o__ppmv_         1.000
rh___              1.000
z__0_1_g_m_        1.000
eq_latitude_deg_n_ 1.000
cc                 1.000
clwc_g_kg_         1.000
clic_g_kg_         1.000
p_strop__hpa_      1.000
p_dtrop__hpa_      1.000
t_strop__k_        1.000
t_dtrop__k_        1.000
pt_strop__k_       1.000
pt_dtrop__k_       1.000
pv_strop__pvu_     1.000
z_strop__01grav_m_ 1.000
z_dtrop__01grav_m_ 1.000
dp_strop__hpa_     1.000
dp_dtrop__hpa_     1.000
#
#-----------------------------
#------------------------------------------------------------
FILE NO_20150115_492_GRU_MUC_10s_V01.txt
#------------------------------------------------------------
PARM COVERAGE[0-1]
NO   0.000
NOy  0.859
NO2  0.000
#
#-----------------------------
#------------------------------------------------------------
FILE NO_20150115_492_GRU_MUC_V01.txt
#------------------------------------------------------------
PARM COVERAGE[0-1]
NO   0.000
NOy  0.843
NO2  0.000
#
#-----------------------------
#------------------------------------------------------------
FILE     OM_20150115_492_GRU_MUC_10s_V03.txt
#------------------------------------------------------------
PARM     COVERAGE[0-1]
Ozone    0.997
H_rel_TP 0.192
#
#-----------------------------
#------------------------------------------------------------
FILE  OM_20150115_492_GRU_MUC_V02.txt
#------------------------------------------------------------
PARM  COVERAGE[0-1]
Ozone 1.000
#
#-----------------------------
#------------------------------------------------------------
FILE     SD_20150115_492_GRU_MUC_10s_V14.txt
#------------------------------------------------------------
PARM     COVERAGE[0-1]
PNumC    0.945
PSurfC   0.945
PVolC    0.945
PMassC   0.945
PSizeD01 0.945
PSizeD02 0.945
PSizeD03 0.945
PSizeD04 0.945
PSizeD05 0.945
PSizeD06 0.945
PSizeD07 0.945
PSizeD08 0.945
PSizeD09 0.945
PSizeD10 0.945
#
#-----------------------------
#------------------------------------------------------------
FILE         SP2_20150115_492_GRU_MUC_10s_V02.txt
#------------------------------------------------------------
PARM         COVERAGE[0-1]
p_chamber    1.000
T_chamber    1.000
SC_Conc      1.000
BC_Mass_Conc 1.000
BC_Conc      1.000
#
#-----------------------------
#------------------------------------------------------------
FILE           SU_20150115_492_GRU_MUC_10s_V15.txt
#------------------------------------------------------------
PARM           COVERAGE[0-1]
FlightPhase    1.000
PosLat         1.000
PosLong        1.000
TrueHead       1.000
WindSpeed      1.000
WindDirTr      1.000
PitchAng       1.000
RollAng        1.000
StdAltitu      1.000
BaroAltit      1.000
TrAirSpeed     1.000
ToAirTmp       1.000
AltitRate      1.000
StcAirTmp      1.000
AngOAttck      1.000
TotPres        1.000
VertSpeed      1.000
GndSpeed       1.000
LocalTime      1.000
pstatic        1.000
Tpot           1.000
Altitude       1.000
SZA            1.000
H2Ostatus      0.982
H2Ogas         0.980
H2Ocloud       0.980
Ozone          0.980
H_rel_TP       0.189
NO             0.000
NOy            0.798
NO2            0.000
TGM            0.969
GEM            0.000
CO             0.855
CO2            0.000
CH4            0.980
CH4_Err        0.980
ACN            0.234
ACE            0.251
N4_12          0.963
N12            0.963
N18            0.963
PNumC          0.924
PSurfC         0.924
PVolC          0.924
PMassC         0.924
PSizeD01       0.924
PSizeD02       0.924
PSizeD03       0.924
PSizeD04       0.924
PSizeD05       0.924
PSizeD06       0.924
PSizeD07       0.924
PSizeD08       0.924
PSizeD09       0.924
PSizeD10       0.924
cpc1_amb_ncm3  0.000
cpc2_amb_ncm3  0.000
opc1_amb_ncm3  0.000
opc12_amb_ncm3 0.000
SC_Conc        0.985
BC_Mass_Conc   0.985
BC_Conc        0.985
#
#-----------------------------
#------------------------------------------------------------
FILE             WAS_20150115_492_GRU_MUC_V02.txt
#------------------------------------------------------------
PARM             COVERAGE[0-1]
lon              1.000
lat              1.000
p                1.000
type             1.000
ch4              1.000
d_ch4            1.000
co2              1.000
d_co2            1.000
n2o              1.000
d_n2o            1.000
sf6              1.000
d_sf6            1.000
Ethyne_MPI       1.000
Ethane_MPI       1.000
Propane_MPI      1.000
i_Butane_MPI     0.429
n_Butane_MPI     0.857
i_Pentane_MPI    0.000
n_Pentane_MPI    0.071
X2_MePentane_MPI 0.000
n_Hexane_MPI     0.000
Benzene_MPI      0.429
cyclohexane_MPI  0.000
i_Octane_MPI     0.000
n_Heptane_MPI    0.000
Toluene_MPI      0.000
n_Octane_MPI     0.000
Etbenzene_MPI    0.000
m_p_Xylene_MPI   0.000
o_Xylene_MPI     0.000
CH3Cl_MPI        1.000
Benzene_UEA      0.000
Toluene_UEA      0.000
CFC_12_UEA       0.000
CFC_11_UEA       0.000
CFC_113_UEA      0.000
HCFC_22_UEA      0.000
HCFC_142b_UEA    0.000
HCFC_141b_UEA    0.000
HFC_152a_UEA     0.000
CH3Cl_UEA        0.000
CH2Cl2_UEA       0.000
CHCl3_UEA        0.000
CCl4_UEA         0.000
CH3CCl3_UEA      0.000
CHClCCl2_UEA     0.000
C2Cl4_UEA        0.000
CH3Br_UEA        0.000
CH2BrCl_UEA      0.000
CHCl2Br_UEA      0.000
CH2Br2_UEA       0.000
CHBr3_UEA        0.000
CH3I_UEA         0.000
Halon_1301_UEA   0.000
CFC_114_UEA      0.000
Halon_1211_UEA   0.000
HCFC_123_UEA     0.000
CHClBr2_UEA      0.000
HFC_134a_UEA     0.000
HFC_124_UEA      0.000
HCFC_21_UEA      0.000
Halon_2402_UEA   0.000
nPB_UEA          0.000
EtONO2_UEA       0.000
DMS_UEA          0.000
COS_UEA          0.000
CS2_UEA          0.000
CH3ONO2_UEA      0.000
#
#-----------------------------
#------------------------------------------------------------
FILE      WA_20150115_492_GRU_MUC_10s_V02.txt
#------------------------------------------------------------
PARM      COVERAGE[0-1]
H2Ostatus 1.000
H2Ogas    0.998
H2Ocloud  0.998
#
#-----------------------------
#------------------------------------------------------------
FILE             WA_20150115_492_GRU_MUC_V02.txt
#------------------------------------------------------------
PARM             COVERAGE[0-1]
H2Otot           1.000
H2Ogas           1.000
H2Ocloud         1.000
CloudEnhancement 1.000
#
#-----------------------------
#------------------------------------------------------------
FILE             WB_20150115_492_GRU_MUC_V02.txt
#------------------------------------------------------------
PARM             COVERAGE[0-1]
H2Otot           1.000
RHtot            1.000
CloudEnhancement 1.000
#
#-----------------------------
#------------------------------------------------------------
FILE       WI_20150115_492_GRU_MUC_10s_V04.txt
#------------------------------------------------------------
PARM       COVERAGE[0-1]
deltaD     0.093
deltaD_Err 0.093
