#------------------------------------------------------------
# FLIGHT 555
# STATUS FROM 2024-04-03T15:12:53+00:00
# FILES MISSING: GHG, HCF
#------------------------------------------------------------
#
#-----------------------------
#------------------------------------------------------------
FILE           C4I_20181009_555_PVG_MUC_10s_V16.txt
#------------------------------------------------------------
PARM           COVERAGE[0-1]
FlightPhase    1.000
PosLat         1.000
PosLong        1.000
TrueHead       1.000
WindSpeed      1.000
WindDirTr      1.000
PitchAng       1.000
RollAng        1.000
StdAltitu      1.000
BaroAltit      1.000
TrAirSpeed     1.000
ToAirTmp       1.000
AltitRate      1.000
StcAirTmp      1.000
AngOAttck      1.000
TotPres        1.000
VertSpeed      1.000
GndSpeed       1.000
LocalTime      1.000
pstatic        1.000
Tpot           1.000
Altitude       1.000
SZA            1.000
H2Ostatus      0.980
H2Ogas         0.980
H2Ocloud       0.980
Ozone          0.977
H_rel_TP       0.663
NO             0.000
NOy            0.799
NO2            0.000
CO             0.854
CO2            0.874
CH4            0.947
N4_12          0.000
N12            0.000
N18            0.000
PNumC          0.000
PSurfC         0.000
PVolC          0.000
PMassC         0.000
PSizeD01       0.000
PSizeD02       0.000
PSizeD03       0.000
PSizeD04       0.000
PSizeD05       0.000
PSizeD06       0.000
PSizeD07       0.000
PSizeD08       0.000
PSizeD09       0.000
PSizeD10       0.000
cpc1_amb_ncm3  1.000
cpc2_amb_ncm3  1.000
opc1_amb_ncm3  0.000
opc12_amb_ncm3 0.000
#
#-----------------------------
#------------------------------------------------------------
FILE CO_20181009_555_PVG_MUC_10s_V01.txt
#------------------------------------------------------------
PARM COVERAGE[0-1]
CO   0.879
#
#-----------------------------
#------------------------------------------------------------
FILE CO_20181009_555_PVG_MUC_V01.txt
#------------------------------------------------------------
PARM COVERAGE[0-1]
CO   0.869
#
#-----------------------------
#------------------------------------------------------------
FILE               INT_20181009_555_PVG_MUC_V12.txt
#------------------------------------------------------------
PARM               COVERAGE[0-1]
lon                1.000
lat                1.000
p                  1.000
alt                1.000
type               1.000
int_CO             0.857
int_O3             1.000
int_H2O_gas        1.000
int_NO             0.000
int_NOy            0.857
int_acetone        0.643
int_acetonitrile   0.643
int_CO2            0.857
int_CH4            0.929
int_h_rel_TP       0.786
int_PV             1.000
int_Tpot           1.000
int_ToAirTmp       1.000
int_z_km           1.000
int_dp_strop_hpa   1.000
int_dp_dtrop_hpa   1.000
int_pv_strop__pvu_ 1.000
int_pt_rel_sTP_K   1.000
int_pt_rel_dTP_K   1.000
int_z_rel_sTP_km   1.000
int_z_rel_dTP_km   1.000
int_eqlat          1.000
#
#-----------------------------
#------------------------------------------------------------
FILE        MA_20181009_555_PVG_MUC_10s_V03.txt
#------------------------------------------------------------
PARM        COVERAGE[0-1]
CRefTime    1.000
UTC_ARINC   1.000
FlightPhase 1.000
PosLat      1.000
PosLong     1.000
TrueHead    1.000
WindSpeed   1.000
WindDirTr   1.000
PitchAng    1.000
RollAng     1.000
StdAltitu   1.000
BaroAltit   1.000
TrAirSpeed  1.000
ToAirTmp    1.000
AltitRate   1.000
StcAirTmp   1.000
AngOAttck   1.000
TotPres     1.000
VertSpeed   1.000
GndSpeed    1.000
LocalTime   1.000
pstatic     1.000
Tpot        1.000
Altitude    1.000
#
#-----------------------------
#------------------------------------------------------------
FILE        MA_20181009_555_PVG_MUC_V03.txt
#------------------------------------------------------------
PARM        COVERAGE[0-1]
CRefTime    1.000
UTC_ARINC   1.000
FlightPhase 1.000
PosLat      1.000
PosLong     1.000
TrueHead    1.000
WindSpeed   1.000
WindDirTr   1.000
PitchAng    1.000
RollAng     1.000
StdAltitu   1.000
BaroAltit   1.000
TrAirSpeed  1.000
ToAirTmp    1.000
AltitRate   1.000
StcAirTmp   1.000
AngOAttck   1.000
TotPres     1.000
VertSpeed   1.000
GndSpeed    1.000
LocalTime   1.000
pstatic     1.000
Tpot        1.000
Altitude    1.000
#
#-----------------------------
#------------------------------------------------------------
FILE               MS_20181009_555_PVG_MUC_10s_V18.txt
#------------------------------------------------------------
PARM               COVERAGE[0-1]
FlightPhase        1.000
PosLat             1.000
PosLong            1.000
TrueHead           1.000
WindSpeed          1.000
WindDirTr          1.000
PitchAng           1.000
RollAng            1.000
StdAltitu          1.000
BaroAltit          1.000
TrAirSpeed         1.000
ToAirTmp           1.000
AltitRate          1.000
StcAirTmp          1.000
AngOAttck          1.000
TotPres            1.000
VertSpeed          1.000
GndSpeed           1.000
LocalTime          1.000
pstatic            1.000
Tpot               1.000
Altitude           1.000
SZA                1.000
H2Ostatus          0.980
H2Ogas             0.980
H2Ocloud           0.980
Ozone              0.977
H_rel_TP           0.663
NO                 0.000
NOy                0.799
TGM                0.000
GEM                0.000
CO                 0.854
CO2                0.874
CH4                0.947
CH4_Err            0.000
ACN                0.219
ACE                0.219
N4_12              0.000
N12                0.000
N18                0.000
PNumC              0.000
PSurfC             0.000
PVolC              0.000
PMassC             0.000
PSizeD01           0.000
PSizeD02           0.000
PSizeD03           0.000
PSizeD04           0.000
PSizeD05           0.000
PSizeD06           0.000
PSizeD07           0.000
PSizeD08           0.000
PSizeD09           0.000
PSizeD10           0.000
cpc1_amb_ncm3      1.000
cpc2_amb_ncm3      1.000
opc1_amb_ncm3      0.000
opc12_amb_ncm3     0.000
SC_Conc            0.983
BC_Mass_Conc       0.983
BC_Conc            0.983
temp__k_           1.000
pv__pvu_           1.000
pot_temp__k_       1.000
eq_pott_temp__k_   1.000
spec_hum__g_kg_    1.000
u__m_s_            1.000
v__m_s_            1.000
w__mubar_s_        1.000
wind_speed__m_s_   1.000
wind_dir__deg_     1.000
h2o__ppmv_         1.000
rh___              1.000
z__0_1_g_m_        1.000
eq_latitude_deg_n_ 1.000
cc                 1.000
clwc_g_kg_         1.000
clic_g_kg_         1.000
p_strop__hpa_      1.000
p_dtrop__hpa_      1.000
t_strop__k_        1.000
t_dtrop__k_        1.000
pt_strop__k_       1.000
pt_dtrop__k_       1.000
pv_strop__pvu_     1.000
z_strop__01grav_m_ 1.000
z_dtrop__01grav_m_ 1.000
dp_strop__hpa_     1.000
dp_dtrop__hpa_     1.000
#
#-----------------------------
#------------------------------------------------------------
FILE NO_20181009_555_PVG_MUC_10s_V01.txt
#------------------------------------------------------------
PARM COVERAGE[0-1]
NO   0.000
NOy  0.869
#
#-----------------------------
#------------------------------------------------------------
FILE NO_20181009_555_PVG_MUC_V01.txt
#------------------------------------------------------------
PARM COVERAGE[0-1]
NO   0.000
NOy  0.850
#
#-----------------------------
#------------------------------------------------------------
FILE     OM_20181009_555_PVG_MUC_10s_V02.txt
#------------------------------------------------------------
PARM     COVERAGE[0-1]
Ozone    0.999
H_rel_TP 0.678
#
#-----------------------------
#------------------------------------------------------------
FILE  OM_20181009_555_PVG_MUC_V01.txt
#------------------------------------------------------------
PARM  COVERAGE[0-1]
Ozone 0.998
#
#-----------------------------
#------------------------------------------------------------
FILE           P2C_20181009_555_PVG_MUC_10s_V01.txt
#------------------------------------------------------------
PARM           COVERAGE[0-1]
cpc1_amb_ncm3  1.000
cpc2_amb_ncm3  1.000
opc1_amb_ncm3  0.000
opc12_amb_ncm3 0.000
cpc1_mg_air    1.000
cpc2_mg_air    1.000
opc1_mg_air    0.000
opc12_mg_air   0.000
#
#-----------------------------
#------------------------------------------------------------
FILE           P2C_20181009_555_PVG_MUC_V01.txt
#------------------------------------------------------------
PARM           COVERAGE[0-1]
cpc1_amb_ncm3  1.000
cpc2_amb_ncm3  1.000
opc1_amb_ncm3  0.000
opc12_amb_ncm3 0.000
cpc1_mg_air    1.000
cpc2_mg_air    1.000
opc1_mg_air    0.000
opc12_mg_air   0.000
#
#-----------------------------
#------------------------------------------------------------
FILE PIC_20181009_555_PVG_MUC_10s_V05.txt
#------------------------------------------------------------
PARM COVERAGE[0-1]
CO2  0.875
CH4  0.947
H2O  0.947
#
#-----------------------------
#------------------------------------------------------------
FILE PIC_20181009_555_PVG_MUC_V05.txt
#------------------------------------------------------------
PARM COVERAGE[0-1]
CO2  0.889
CH4  0.963
H2O  0.963
#
#-----------------------------
#------------------------------------------------------------
FILE     PTR_20181009_555_PVG_MUC_10s_V01.txt
#------------------------------------------------------------
PARM     COVERAGE[0-1]
ACN      0.235
ACN_prec 0.235
ACA      0.233
ACA_prec 0.233
ACE      0.235
ACE_prec 0.235
BEN      0.226
BEN_prec 0.226
#
#-----------------------------
#------------------------------------------------------------
FILE         SP2_20181009_555_PVG_MUC_10s_V01.txt
#------------------------------------------------------------
PARM         COVERAGE[0-1]
p_chamber    1.000
T_chamber    1.000
SC_Conc      1.000
BC_Mass_Conc 1.000
BC_Conc      1.000
#
#-----------------------------
#------------------------------------------------------------
FILE           SU_20181009_555_PVG_MUC_10s_V20.txt
#------------------------------------------------------------
PARM           COVERAGE[0-1]
FlightPhase    1.000
PosLat         1.000
PosLong        1.000
TrueHead       1.000
WindSpeed      1.000
WindDirTr      1.000
PitchAng       1.000
RollAng        1.000
StdAltitu      1.000
BaroAltit      1.000
TrAirSpeed     1.000
ToAirTmp       1.000
AltitRate      1.000
StcAirTmp      1.000
AngOAttck      1.000
TotPres        1.000
VertSpeed      1.000
GndSpeed       1.000
LocalTime      1.000
pstatic        1.000
Tpot           1.000
Altitude       1.000
SZA            1.000
H2Ostatus      0.980
H2Ogas         0.980
H2Ocloud       0.980
Ozone          0.977
H_rel_TP       0.663
NO             0.000
NOy            0.799
TGM            0.000
GEM            0.000
CO             0.854
CO2            0.874
CH4            0.947
CH4_Err        0.000
ACN            0.219
ACE            0.219
N4_12          0.000
N12            0.000
N18            0.000
PNumC          0.000
PSurfC         0.000
PVolC          0.000
PMassC         0.000
PSizeD01       0.000
PSizeD02       0.000
PSizeD03       0.000
PSizeD04       0.000
PSizeD05       0.000
PSizeD06       0.000
PSizeD07       0.000
PSizeD08       0.000
PSizeD09       0.000
PSizeD10       0.000
cpc1_amb_ncm3  1.000
cpc2_amb_ncm3  1.000
opc1_amb_ncm3  0.000
opc12_amb_ncm3 0.000
SC_Conc        0.983
BC_Mass_Conc   0.983
BC_Conc        0.983
#
#-----------------------------
#------------------------------------------------------------
FILE      WA_20181009_555_PVG_MUC_10s_V02.txt
#------------------------------------------------------------
PARM      COVERAGE[0-1]
H2Ostatus 1.000
H2Ogas    1.000
H2Ocloud  1.000
#
#-----------------------------
#------------------------------------------------------------
FILE             WA_20181009_555_PVG_MUC_V02.txt
#------------------------------------------------------------
PARM             COVERAGE[0-1]
H2Otot           1.000
H2Ogas           1.000
H2Ocloud         1.000
CloudEnhancement 1.000
#
#-----------------------------
#------------------------------------------------------------
FILE             WB_20181009_555_PVG_MUC_V02.txt
#------------------------------------------------------------
PARM             COVERAGE[0-1]
H2Otot           1.000
RHtot            1.000
CloudEnhancement 1.000
